{
  "data": [
    {
      "id": 261,
      "sku": "AUR-LAP-LEN-0261",
      "title": "Lenovo Yoga 920 — 16GB / 512GB",
      "slug": "lenovo-yoga-920",
      "brand": "Lenovo",
      "category": "laptops",
      "categoryName": "Dizüstü Bilgisayarlar",
      "unitPrice": 4634910,
      "price": {
        "amount": 4634910,
        "currency": "TRY",
        "formatted": "₺46.349,10",
        "compareAt": 4959775,
        "compareAtFormatted": "₺49.597,75",
        "discountPercentage": 6.55,
        "savings": 324865,
        "savingsFormatted": "₺3.248,65"
      },
      "currency": "TRY",
      "rating": 2.84,
      "reviewCount": 6,
      "stock": 65,
      "inStock": true,
      "availabilityStatus": "Stokta",
      "badges": [],
      "isNew": false,
      "isBestSeller": false,
      "thumbnail": "https://cdn.dummyjson.com/product-images/laptops/lenovo-yoga-920/thumbnail.webp",
      "images": [
        "https://cdn.dummyjson.com/product-images/laptops/lenovo-yoga-920/1.webp"
      ],
      "variantOf": 71,
      "variantLabel": "16GB / 512GB",
      "links": {
        "self": "https://api.aurora-commerce.dev/v1/products/261"
      }
    },
    {
      "id": 262,
      "sku": "AUR-LAP-DEL-0262",
      "title": "Dell XPS 13 9300 Dizüstü — 16GB / 512GB",
      "slug": "new-dell-xps-13-9300-laptop",
      "brand": "Dell",
      "category": "laptops",
      "categoryName": "Dizüstü Bilgisayarlar",
      "unitPrice": 6344910,
      "price": {
        "amount": 6344910,
        "currency": "TRY",
        "formatted": "₺63.449,10",
        "compareAt": 7201124,
        "compareAtFormatted": "₺72.011,24",
        "discountPercentage": 11.89,
        "savings": 856214,
        "savingsFormatted": "₺8.562,14"
      },
      "currency": "TRY",
      "rating": 2.43,
      "reviewCount": 3,
      "stock": 95,
      "inStock": true,
      "availabilityStatus": "Stokta",
      "badges": [],
      "isNew": false,
      "isBestSeller": false,
      "thumbnail": "https://cdn.dummyjson.com/product-images/laptops/new-dell-xps-13-9300-laptop/thumbnail.webp",
      "images": [
        "https://cdn.dummyjson.com/product-images/laptops/new-dell-xps-13-9300-laptop/1.webp"
      ],
      "variantOf": 72,
      "variantLabel": "16GB / 512GB",
      "links": {
        "self": "https://api.aurora-commerce.dev/v1/products/262"
      }
    },
    {
      "id": 263,
      "sku": "AUR-MEN-FAS-0263",
      "title": "Mavi & Siyah Ekose Gömlek — Beden S",
      "slug": "blue-&-black-check-shirt",
      "brand": "Fashion Trends",
      "category": "mens-shirts",
      "categoryName": "Erkek Gömlek",
      "unitPrice": 160988,
      "price": {
        "amount": 160988,
        "currency": "TRY",
        "formatted": "₺1.609,88",
        "compareAt": 190181,
        "compareAtFormatted": "₺1.901,81",
        "discountPercentage": 15.35,
        "savings": 29193,
        "savingsFormatted": "₺291,93"
      },
      "currency": "TRY",
      "rating": 3.78,
      "reviewCount": 4,
      "stock": 24,
      "inStock": true,
      "availabilityStatus": "Stokta",
      "badges": [
        "indirim"
      ],
      "isNew": false,
      "isBestSeller": false,
      "thumbnail": "https://cdn.dummyjson.com/product-images/mens-shirts/blue-&-black-check-shirt/thumbnail.webp",
      "images": [
        "https://cdn.dummyjson.com/product-images/mens-shirts/blue-&-black-check-shirt/1.webp"
      ],
      "variantOf": 73,
      "variantLabel": "Beden S",
      "links": {
        "self": "https://api.aurora-commerce.dev/v1/products/263"
      }
    },
    {
      "id": 264,
      "sku": "AUR-MEN-GIG-0264",
      "title": "Gigabyte Aorus Erkek Tişört — Beden S",
      "slug": "gigabyte-aorus-men-tshirt",
      "brand": "Gigabyte",
      "category": "mens-shirts",
      "categoryName": "Erkek Gömlek",
      "unitPrice": 132238,
      "price": {
        "amount": 132238,
        "currency": "TRY",
        "formatted": "₺1.322,38",
        "compareAt": 133493,
        "compareAtFormatted": "₺1.334,93",
        "discountPercentage": 0.94,
        "savings": 1255,
        "savingsFormatted": "₺12,55"
      },
      "currency": "TRY",
      "rating": 3.04,
      "reviewCount": 5,
      "stock": 87,
      "inStock": true,
      "availabilityStatus": "Stokta",
      "badges": [],
      "isNew": false,
      "isBestSeller": false,
      "thumbnail": "https://cdn.dummyjson.com/product-images/mens-shirts/gigabyte-aorus-men-tshirt/thumbnail.webp",
      "images": [
        "https://cdn.dummyjson.com/product-images/mens-shirts/gigabyte-aorus-men-tshirt/1.webp"
      ],
      "variantOf": 74,
      "variantLabel": "Beden S",
      "links": {
        "self": "https://api.aurora-commerce.dev/v1/products/264"
      }
    },
    {
      "id": 265,
      "sku": "AUR-MEN-CLA-0265",
      "title": "Erkek Ekose Gömlek — Beden S",
      "slug": "man-plaid-shirt",
      "brand": "Classic Wear",
      "category": "mens-shirts",
      "categoryName": "Erkek Gömlek",
      "unitPrice": 181489,
      "price": {
        "amount": 181489,
        "currency": "TRY",
        "formatted": "₺1.814,89",
        "compareAt": 225452,
        "compareAtFormatted": "₺2.254,52",
        "discountPercentage": 19.5,
        "savings": 43963,
        "savingsFormatted": "₺439,63"
      },
      "currency": "TRY",
      "rating": 3.46,
      "reviewCount": 3,
      "stock": 68,
      "inStock": true,
      "availabilityStatus": "Stokta",
      "badges": [
        "indirim"
      ],
      "isNew": false,
      "isBestSeller": false,
      "thumbnail": "https://cdn.dummyjson.com/product-images/mens-shirts/man-plaid-shirt/thumbnail.webp",
      "images": [
        "https://cdn.dummyjson.com/product-images/mens-shirts/man-plaid-shirt/1.webp"
      ],
      "variantOf": 75,
      "variantLabel": "Beden S",
      "links": {
        "self": "https://api.aurora-commerce.dev/v1/products/265"
      }
    },
    {
      "id": 266,
      "sku": "AUR-MEN-CAS-0266",
      "title": "Erkek Kısa Kollu Gömlek — Beden S",
      "slug": "man-short-sleeve-shirt",
      "brand": "Casual Comfort",
      "category": "mens-shirts",
      "categoryName": "Erkek Gömlek",
      "unitPrice": 103389,
      "price": {
        "amount": 103389,
        "currency": "TRY",
        "formatted": "₺1.033,89",
        "compareAt": 110968,
        "compareAtFormatted": "₺1.109,68",
        "discountPercentage": 6.83,
        "savings": 7579,
        "savingsFormatted": "₺75,79"
      },
      "currency": "TRY",
      "rating": 3.14,
      "reviewCount": 3,
      "stock": 10,
      "inStock": true,
      "availabilityStatus": "Son Birkaç Ürün",
      "badges": [
        "son ürünler"
      ],
      "isNew": false,
      "isBestSeller": false,
      "thumbnail": "https://cdn.dummyjson.com/product-images/mens-shirts/man-short-sleeve-shirt/thumbnail.webp",
      "images": [
        "https://cdn.dummyjson.com/product-images/mens-shirts/man-short-sleeve-shirt/1.webp"
      ],
      "variantOf": 76,
      "variantLabel": "Beden S",
      "links": {
        "self": "https://api.aurora-commerce.dev/v1/products/266"
      }
    },
    {
      "id": 267,
      "sku": "AUR-MEN-URB-0267",
      "title": "Erkek Kareli Gömlek — Beden S",
      "slug": "men-check-shirt",
      "brand": "Urban Chic",
      "category": "mens-shirts",
      "categoryName": "Erkek Gömlek",
      "unitPrice": 149488,
      "price": {
        "amount": 149488,
        "currency": "TRY",
        "formatted": "₺1.494,88",
        "compareAt": 168684,
        "compareAtFormatted": "₺1.686,84",
        "discountPercentage": 11.38,
        "savings": 19196,
        "savingsFormatted": "₺191,96"
      },
      "currency": "TRY",
      "rating": 2.77,
      "reviewCount": 2,
      "stock": 111,
      "inStock": true,
      "availabilityStatus": "Stokta",
      "badges": [],
      "isNew": false,
      "isBestSeller": false,
      "thumbnail": "https://cdn.dummyjson.com/product-images/mens-shirts/men-check-shirt/thumbnail.webp",
      "images": [
        "https://cdn.dummyjson.com/product-images/mens-shirts/men-check-shirt/1.webp"
      ],
      "variantOf": 77,
      "variantLabel": "Beden S",
      "links": {
        "self": "https://api.aurora-commerce.dev/v1/products/267"
      }
    },
    {
      "id": 268,
      "sku": "AUR-MEN-NIK-0268",
      "title": "Nike Air Jordan 1 Kırmızı ve Siyah — 41 Numara",
      "slug": "nike-air-jordan-1-red-and-black",
      "brand": "Nike",
      "category": "mens-shoes",
      "categoryName": "Erkek Ayakkabı",
      "unitPrice": 704990,
      "price": {
        "amount": 704990,
        "currency": "TRY",
        "formatted": "₺7.049,90",
        "compareAt": 735284,
        "compareAtFormatted": "₺7.352,84",
        "discountPercentage": 4.12,
        "savings": 30294,
        "savingsFormatted": "₺302,94"
      },
      "currency": "TRY",
      "rating": 4.6,
      "reviewCount": 5,
      "stock": 17,
      "inStock": true,
      "availabilityStatus": "Stokta",
      "badges": [],
      "isNew": false,
      "isBestSeller": true,
      "thumbnail": "https://cdn.dummyjson.com/product-images/mens-shoes/nike-air-jordan-1-red-and-black/thumbnail.webp",
      "images": [
        "https://cdn.dummyjson.com/product-images/mens-shoes/nike-air-jordan-1-red-and-black/1.webp"
      ],
      "variantOf": 78,
      "variantLabel": "41 Numara",
      "links": {
        "self": "https://api.aurora-commerce.dev/v1/products/268"
      }
    },
    {
      "id": 269,
      "sku": "AUR-MEN-NIK-0269",
      "title": "Nike Beyzbol Krampon — 41 Numara",
      "slug": "nike-baseball-cleats",
      "brand": "Nike",
      "category": "mens-shoes",
      "categoryName": "Erkek Ayakkabı",
      "unitPrice": 412489,
      "price": {
        "amount": 412489,
        "currency": "TRY",
        "formatted": "₺4.124,89",
        "compareAt": 503281,
        "compareAtFormatted": "₺5.032,81",
        "discountPercentage": 18.04,
        "savings": 90792,
        "savingsFormatted": "₺907,92"
      },
      "currency": "TRY",
      "rating": 4.0,
      "reviewCount": 4,
      "stock": 8,
      "inStock": true,
      "availabilityStatus": "Son Birkaç Ürün",
      "badges": [
        "indirim",
        "son ürünler"
      ],
      "isNew": false,
      "isBestSeller": false,
      "thumbnail": "https://cdn.dummyjson.com/product-images/mens-shoes/nike-baseball-cleats/thumbnail.webp",
      "images": [
        "https://cdn.dummyjson.com/product-images/mens-shoes/nike-baseball-cleats/1.webp"
      ],
      "variantOf": 79,
      "variantLabel": "41 Numara",
      "links": {
        "self": "https://api.aurora-commerce.dev/v1/products/269"
      }
    },
    {
      "id": 270,
      "sku": "AUR-MEN-PUM-0270",
      "title": "Puma Future Rider Spor Ayakkabı — 41 Numara",
      "slug": "puma-future-rider-trainers",
      "brand": "Puma",
      "category": "mens-shoes",
      "categoryName": "Erkek Ayakkabı",
      "unitPrice": 488738,
      "price": {
        "amount": 488738,
        "currency": "TRY",
        "formatted": "₺4.887,38",
        "compareAt": 510165,
        "compareAtFormatted": "₺5.101,65",
        "discountPercentage": 4.2,
        "savings": 21427,
        "savingsFormatted": "₺214,27"
      },
      "currency": "TRY",
      "rating": 4.92,
      "reviewCount": 4,
      "stock": 86,
      "inStock": true,
      "availabilityStatus": "Stokta",
      "badges": [],
      "isNew": false,
      "isBestSeller": true,
      "thumbnail": "https://cdn.dummyjson.com/product-images/mens-shoes/puma-future-rider-trainers/thumbnail.webp",
      "images": [
        "https://cdn.dummyjson.com/product-images/mens-shoes/puma-future-rider-trainers/1.webp"
      ],
      "variantOf": 80,
      "variantLabel": "41 Numara",
      "links": {
        "self": "https://api.aurora-commerce.dev/v1/products/270"
      }
    },
    {
      "id": 271,
      "sku": "AUR-MEN-OFF-0271",
      "title": "Off White & Kırmızı Spor Ayakkabı — 41 Numara",
      "slug": "sports-sneakers-off-white-&-red",
      "brand": "Off White",
      "category": "mens-shoes",
      "categoryName": "Erkek Ayakkabı",
      "unitPrice": 649738,
      "price": {
        "amount": 649738,
        "currency": "TRY",
        "formatted": "₺6.497,38",
        "compareAt": 683719,
        "compareAtFormatted": "₺6.837,19",
        "discountPercentage": 4.97,
        "savings": 33981,
        "savingsFormatted": "₺339,81"
      },
      "currency": "TRY",
      "rating": 5.0,
      "reviewCount": 6,
      "stock": 30,
      "inStock": true,
      "availabilityStatus": "Stokta",
      "badges": [],
      "isNew": false,
      "isBestSeller": true,
      "thumbnail": "https://cdn.dummyjson.com/product-images/mens-shoes/sports-sneakers-off-white-&-red/thumbnail.webp",
      "images": [
        "https://cdn.dummyjson.com/product-images/mens-shoes/sports-sneakers-off-white-&-red/1.webp"
      ],
      "variantOf": 81,
      "variantLabel": "41 Numara",
      "links": {
        "self": "https://api.aurora-commerce.dev/v1/products/271"
      }
    },
    {
      "id": 272,
      "sku": "AUR-MEN-OFF-0272",
      "title": "Off White Kırmızı Spor Ayakkabı — 41 Numara",
      "slug": "sports-sneakers-off-white-red",
      "brand": "Off White",
      "category": "mens-shoes",
      "categoryName": "Erkek Ayakkabı",
      "unitPrice": 463491,
      "price": {
        "amount": 463491,
        "currency": "TRY",
        "formatted": "₺4.634,91",
        "compareAt": 463676,
        "compareAtFormatted": "₺4.636,76",
        "discountPercentage": 0.04,
        "savings": 185,
        "savingsFormatted": "₺1,85"
      },
      "currency": "TRY",
      "rating": 4.97,
      "reviewCount": 5,
      "stock": 50,
      "inStock": true,
      "availabilityStatus": "Stokta",
      "badges": [],
      "isNew": false,
      "isBestSeller": true,
      "thumbnail": "https://cdn.dummyjson.com/product-images/mens-shoes/sports-sneakers-off-white-red/thumbnail.webp",
      "images": [
        "https://cdn.dummyjson.com/product-images/mens-shoes/sports-sneakers-off-white-red/1.webp"
      ],
      "variantOf": 82,
      "variantLabel": "41 Numara",
      "links": {
        "self": "https://api.aurora-commerce.dev/v1/products/272"
      }
    },
    {
      "id": 273,
      "sku": "AUR-MEN-FAS-0273",
      "title": "Kahverengi Deri Kayışlı Saat — Çelik Kordon",
      "slug": "brown-leather-belt-watch",
      "brand": "Fashion Timepieces",
      "category": "mens-watches",
      "categoryName": "Erkek Saat",
      "unitPrice": 488738,
      "price": {
        "amount": 488738,
        "currency": "TRY",
        "formatted": "₺4.887,38",
        "compareAt": 519879,
        "compareAtFormatted": "₺5.198,79",
        "discountPercentage": 5.99,
        "savings": 31141,
        "savingsFormatted": "₺311,41"
      },
      "currency": "TRY",
      "rating": 4.32,
      "reviewCount": 4,
      "stock": 53,
      "inStock": true,
      "availabilityStatus": "Stokta",
      "badges": [],
      "isNew": false,
      "isBestSeller": false,
      "thumbnail": "https://cdn.dummyjson.com/product-images/mens-watches/brown-leather-belt-watch/thumbnail.webp",
      "images": [
        "https://cdn.dummyjson.com/product-images/mens-watches/brown-leather-belt-watch/1.webp"
      ],
      "variantOf": 83,
      "variantLabel": "Çelik Kordon",
      "links": {
        "self": "https://api.aurora-commerce.dev/v1/products/273"
      }
    },
    {
      "id": 274,
      "sku": "AUR-MEN-LON-0274",
      "title": "Longines Master Collection — Çelik Kordon",
      "slug": "longines-master-collection",
      "brand": "Longines",
      "category": "mens-watches",
      "categoryName": "Erkek Saat",
      "unitPrice": 8107385,
      "price": {
        "amount": 8107385,
        "currency": "TRY",
        "formatted": "₺81.073,85",
        "compareAt": 9796260,
        "compareAtFormatted": "₺97.962,60",
        "discountPercentage": 17.24,
        "savings": 1688875,
        "savingsFormatted": "₺16.888,75"
      },
      "currency": "TRY",
      "rating": 3.89,
      "reviewCount": 4,
      "stock": 103,
      "inStock": true,
      "availabilityStatus": "Stokta",
      "badges": [
        "indirim"
      ],
      "isNew": false,
      "isBestSeller": false,
      "thumbnail": "https://cdn.dummyjson.com/product-images/mens-watches/longines-master-collection/thumbnail.webp",
      "images": [
        "https://cdn.dummyjson.com/product-images/mens-watches/longines-master-collection/1.webp"
      ],
      "variantOf": 84,
      "variantLabel": "Çelik Kordon",
      "links": {
        "self": "https://api.aurora-commerce.dev/v1/products/274"
      }
    },
    {
      "id": 275,
      "sku": "AUR-MEN-ROL-0275",
      "title": "Rolex Cellini Date Siyah Kadran — Çelik Kordon",
      "slug": "rolex-cellini-date-black-dial",
      "brand": "Rolex",
      "category": "mens-watches",
      "categoryName": "Erkek Saat",
      "unitPrice": 42299900,
      "price": {
        "amount": 42299900,
        "currency": "TRY",
        "formatted": "₺422.999,00",
        "compareAt": 46422191,
        "compareAtFormatted": "₺464.221,91",
        "discountPercentage": 8.88,
        "savings": 4122291,
        "savingsFormatted": "₺41.222,91"
      },
      "currency": "TRY",
      "rating": 5.0,
      "reviewCount": 2,
      "stock": 38,
      "inStock": true,
      "availabilityStatus": "Stokta",
      "badges": [],
      "isNew": false,
      "isBestSeller": true,
      "thumbnail": "https://cdn.dummyjson.com/product-images/mens-watches/rolex-cellini-date-black-dial/thumbnail.webp",
      "images": [
        "https://cdn.dummyjson.com/product-images/mens-watches/rolex-cellini-date-black-dial/1.webp"
      ],
      "variantOf": 85,
      "variantLabel": "Çelik Kordon",
      "links": {
        "self": "https://api.aurora-commerce.dev/v1/products/275"
      }
    },
    {
      "id": 276,
      "sku": "AUR-MEN-ROL-0276",
      "title": "Rolex Cellini Moonphase — Çelik Kordon",
      "slug": "rolex-cellini-moonphase",
      "brand": "Rolex",
      "category": "mens-watches",
      "categoryName": "Erkek Saat",
      "unitPrice": 61099900,
      "price": {
        "amount": 61099900,
        "currency": "TRY",
        "formatted": "₺610.999,00",
        "compareAt": 74078443,
        "compareAtFormatted": "₺740.784,43",
        "discountPercentage": 17.52,
        "savings": 12978543,
        "savingsFormatted": "₺129.785,43"
      },
      "currency": "TRY",
      "rating": 2.67,
      "reviewCount": 5,
      "stock": 42,
      "inStock": true,
      "availabilityStatus": "Stokta",
      "badges": [
        "indirim"
      ],
      "isNew": false,
      "isBestSeller": false,
      "thumbnail": "https://cdn.dummyjson.com/product-images/mens-watches/rolex-cellini-moonphase/thumbnail.webp",
      "images": [
        "https://cdn.dummyjson.com/product-images/mens-watches/rolex-cellini-moonphase/1.webp"
      ],
      "variantOf": 86,
      "variantLabel": "Çelik Kordon",
      "links": {
        "self": "https://api.aurora-commerce.dev/v1/products/276"
      }
    },
    {
      "id": 277,
      "sku": "AUR-MEN-ROL-0277",
      "title": "Rolex Datejust — Çelik Kordon",
      "slug": "rolex-datejust",
      "brand": "Rolex",
      "category": "mens-watches",
      "categoryName": "Erkek Saat",
      "unitPrice": 56869890,
      "price": {
        "amount": 56869890,
        "currency": "TRY",
        "formatted": "₺568.698,90",
        "compareAt": 59073325,
        "compareAtFormatted": "₺590.733,25",
        "discountPercentage": 3.73,
        "savings": 2203435,
        "savingsFormatted": "₺22.034,35"
      },
      "currency": "TRY",
      "rating": 3.59,
      "reviewCount": 3,
      "stock": 110,
      "inStock": true,
      "availabilityStatus": "Stokta",
      "badges": [],
      "isNew": false,
      "isBestSeller": false,
      "thumbnail": "https://cdn.dummyjson.com/product-images/mens-watches/rolex-datejust/thumbnail.webp",
      "images": [
        "https://cdn.dummyjson.com/product-images/mens-watches/rolex-datejust/1.webp"
      ],
      "variantOf": 87,
      "variantLabel": "Çelik Kordon",
      "links": {
        "self": "https://api.aurora-commerce.dev/v1/products/277"
      }
    },
    {
      "id": 278,
      "sku": "AUR-MEN-ROL-0278",
      "title": "Rolex Submariner Saat — Çelik Kordon",
      "slug": "rolex-submariner-watch",
      "brand": "Rolex",
      "category": "mens-watches",
      "categoryName": "Erkek Saat",
      "unitPrice": 65799900,
      "price": {
        "amount": 65799900,
        "currency": "TRY",
        "formatted": "₺657.999,00",
        "compareAt": 69299526,
        "compareAtFormatted": "₺692.995,26",
        "discountPercentage": 5.05,
        "savings": 3499626,
        "savingsFormatted": "₺34.996,26"
      },
      "currency": "TRY",
      "rating": 2.47,
      "reviewCount": 4,
      "stock": 65,
      "inStock": true,
      "availabilityStatus": "Stokta",
      "badges": [],
      "isNew": false,
      "isBestSeller": false,
      "thumbnail": "https://cdn.dummyjson.com/product-images/mens-watches/rolex-submariner-watch/thumbnail.webp",
      "images": [
        "https://cdn.dummyjson.com/product-images/mens-watches/rolex-submariner-watch/1.webp"
      ],
      "variantOf": 88,
      "variantLabel": "Çelik Kordon",
      "links": {
        "self": "https://api.aurora-commerce.dev/v1/products/278"
      }
    },
    {
      "id": 279,
      "sku": "AUR-MOB-AMA-0279",
      "title": "Amazon Echo Plus — Beyaz",
      "slug": "amazon-echo-plus",
      "brand": "Amazon",
      "category": "mobile-accessories",
      "categoryName": "Telefon Aksesuarları",
      "unitPrice": 540488,
      "price": {
        "amount": 540488,
        "currency": "TRY",
        "formatted": "₺5.404,88",
        "compareAt": 614680,
        "compareAtFormatted": "₺6.146,80",
        "discountPercentage": 12.07,
        "savings": 74192,
        "savingsFormatted": "₺741,92"
      },
      "currency": "TRY",
      "rating": 5.0,
      "reviewCount": 6,
      "stock": 65,
      "inStock": true,
      "availabilityStatus": "Stokta",
      "badges": [
        "indirim"
      ],
      "isNew": false,
      "isBestSeller": true,
      "thumbnail": "https://cdn.dummyjson.com/product-images/mobile-accessories/amazon-echo-plus/thumbnail.webp",
      "images": [
        "https://cdn.dummyjson.com/product-images/mobile-accessories/amazon-echo-plus/1.webp"
      ],
      "variantOf": 89,
      "variantLabel": "Beyaz",
      "links": {
        "self": "https://api.aurora-commerce.dev/v1/products/279"
      }
    },
    {
      "id": 280,
      "sku": "AUR-MOB-APP-0280",
      "title": "Apple AirPods — Beyaz",
      "slug": "apple-airpods",
      "brand": "Apple",
      "category": "mobile-accessories",
      "categoryName": "Telefon Aksesuarları",
      "unitPrice": 701488,
      "price": {
        "amount": 701488,
        "currency": "TRY",
        "formatted": "₺7.014,88",
        "compareAt": 830556,
        "compareAtFormatted": "₺8.305,56",
        "discountPercentage": 15.54,
        "savings": 129068,
        "savingsFormatted": "₺1.290,68"
      },
      "currency": "TRY",
      "rating": 4.05,
      "reviewCount": 3,
      "stock": 82,
      "inStock": true,
      "availabilityStatus": "Stokta",
      "badges": [
        "indirim"
      ],
      "isNew": false,
      "isBestSeller": false,
      "thumbnail": "https://cdn.dummyjson.com/product-images/mobile-accessories/apple-airpods/thumbnail.webp",
      "images": [
        "https://cdn.dummyjson.com/product-images/mobile-accessories/apple-airpods/1.webp"
      ],
      "variantOf": 90,
      "variantLabel": "Beyaz",
      "links": {
        "self": "https://api.aurora-commerce.dev/v1/products/280"
      }
    }
  ],
  "pagination": {
    "page": 14,
    "pageSize": 20,
    "total": 320,
    "totalPages": 16,
    "hasNext": true,
    "hasPrev": true
  },
  "links": {
    "self": "https://api.aurora-commerce.dev/v1/products?page=14&pageSize=20",
    "first": "https://api.aurora-commerce.dev/v1/products?page=1&pageSize=20",
    "last": "https://api.aurora-commerce.dev/v1/products?page=16&pageSize=20",
    "next": "https://api.aurora-commerce.dev/v1/products?page=15&pageSize=20",
    "prev": "https://api.aurora-commerce.dev/v1/products?page=13&pageSize=20"
  },
  "filters": {
    "categories": [
      {
        "slug": "smartphones",
        "name": "Akıllı Telefonlar"
      },
      {
        "slug": "laptops",
        "name": "Dizüstü Bilgisayarlar"
      },
      {
        "slug": "tablets",
        "name": "Tabletler"
      },
      {
        "slug": "electronics",
        "name": "Elektronik"
      },
      {
        "slug": "mobile-accessories",
        "name": "Telefon Aksesuarları"
      },
      {
        "slug": "kitchen-accessories",
        "name": "Mutfak Gereçleri"
      },
      {
        "slug": "home-decoration",
        "name": "Ev Dekorasyonu"
      },
      {
        "slug": "furniture",
        "name": "Mobilya"
      },
      {
        "slug": "mens-watches",
        "name": "Erkek Saat"
      },
      {
        "slug": "sports-accessories",
        "name": "Spor Aksesuarları"
      },
      {
        "slug": "sunglasses",
        "name": "Güneş Gözlüğü"
      },
      {
        "slug": "mens-shoes",
        "name": "Erkek Ayakkabı"
      },
      {
        "slug": "apparel",
        "name": "Giyim"
      },
      {
        "slug": "mens-shirts",
        "name": "Erkek Gömlek"
      },
      {
        "slug": "motorcycle",
        "name": "Motosiklet"
      },
      {
        "slug": "vehicle",
        "name": "Araçlar"
      },
      {
        "slug": "groceries",
        "name": "Market"
      }
    ]
  },
  "meta": {
    "generatedAt": "2026-07-06T09:00:00.000Z",
    "currency": "TRY",
    "apiVersion": "v1"
  }
}