{
  "data": [
    {
      "id": 281,
      "sku": "AUR-MOB-APP-0281",
      "title": "Apple AirPods Max Gümüş — Beyaz",
      "slug": "apple-airpods-max-silver",
      "brand": "Apple",
      "category": "mobile-accessories",
      "categoryName": "Telefon Aksesuarları",
      "unitPrice": 2989885,
      "price": {
        "amount": 2989885,
        "currency": "TRY",
        "formatted": "₺29.898,85",
        "compareAt": 3463321,
        "compareAtFormatted": "₺34.633,21",
        "discountPercentage": 13.67,
        "savings": 473436,
        "savingsFormatted": "₺4.734,36"
      },
      "currency": "TRY",
      "rating": 3.63,
      "reviewCount": 6,
      "stock": 54,
      "inStock": true,
      "availabilityStatus": "Stokta",
      "badges": [
        "indirim"
      ],
      "isNew": false,
      "isBestSeller": false,
      "thumbnail": "https://cdn.dummyjson.com/product-images/mobile-accessories/apple-airpods-max-silver/thumbnail.webp",
      "images": [
        "https://cdn.dummyjson.com/product-images/mobile-accessories/apple-airpods-max-silver/1.webp"
      ],
      "variantOf": 91,
      "variantLabel": "Beyaz",
      "links": {
        "self": "https://api.aurora-commerce.dev/v1/products/281"
      }
    },
    {
      "id": 282,
      "sku": "AUR-MOB-APP-0282",
      "title": "Apple AirPower Kablosuz Şarj Cihazı — Beyaz",
      "slug": "apple-airpower-wireless-charger",
      "brand": "Apple",
      "category": "mobile-accessories",
      "categoryName": "Telefon Aksesuarları",
      "unitPrice": 431238,
      "price": {
        "amount": 431238,
        "currency": "TRY",
        "formatted": "₺4.312,38",
        "compareAt": 451464,
        "compareAtFormatted": "₺4.514,64",
        "discountPercentage": 4.48,
        "savings": 20226,
        "savingsFormatted": "₺202,26"
      },
      "currency": "TRY",
      "rating": 3.58,
      "reviewCount": 2,
      "stock": 0,
      "inStock": false,
      "availabilityStatus": "Stokta Yok",
      "badges": [
        "tükendi"
      ],
      "isNew": false,
      "isBestSeller": false,
      "thumbnail": "https://cdn.dummyjson.com/product-images/mobile-accessories/apple-airpower-wireless-charger/thumbnail.webp",
      "images": [
        "https://cdn.dummyjson.com/product-images/mobile-accessories/apple-airpower-wireless-charger/1.webp"
      ],
      "variantOf": 92,
      "variantLabel": "Beyaz",
      "links": {
        "self": "https://api.aurora-commerce.dev/v1/products/282"
      }
    },
    {
      "id": 283,
      "sku": "AUR-MOB-APP-0283",
      "title": "Apple HomePod Mini Uzay Grisi — Beyaz",
      "slug": "apple-homepod-mini-cosmic-grey",
      "brand": "Apple",
      "category": "mobile-accessories",
      "categoryName": "Telefon Aksesuarları",
      "unitPrice": 540488,
      "price": {
        "amount": 540488,
        "currency": "TRY",
        "formatted": "₺5.404,88",
        "compareAt": 659937,
        "compareAtFormatted": "₺6.599,37",
        "discountPercentage": 18.1,
        "savings": 119449,
        "savingsFormatted": "₺1.194,49"
      },
      "currency": "TRY",
      "rating": 4.74,
      "reviewCount": 3,
      "stock": 38,
      "inStock": true,
      "availabilityStatus": "Stokta",
      "badges": [
        "indirim"
      ],
      "isNew": false,
      "isBestSeller": true,
      "thumbnail": "https://cdn.dummyjson.com/product-images/mobile-accessories/apple-homepod-mini-cosmic-grey/thumbnail.webp",
      "images": [
        "https://cdn.dummyjson.com/product-images/mobile-accessories/apple-homepod-mini-cosmic-grey/1.webp"
      ],
      "variantOf": 93,
      "variantLabel": "Beyaz",
      "links": {
        "self": "https://api.aurora-commerce.dev/v1/products/283"
      }
    },
    {
      "id": 284,
      "sku": "AUR-MOB-APP-0284",
      "title": "Apple iPhone Şarj Cihazı — Beyaz",
      "slug": "apple-iphone-charger",
      "brand": "Apple",
      "category": "mobile-accessories",
      "categoryName": "Telefon Aksesuarları",
      "unitPrice": 84591,
      "price": {
        "amount": 84591,
        "currency": "TRY",
        "formatted": "₺845,91",
        "compareAt": 103818,
        "compareAtFormatted": "₺1.038,18",
        "discountPercentage": 18.52,
        "savings": 19227,
        "savingsFormatted": "₺192,27"
      },
      "currency": "TRY",
      "rating": 4.29,
      "reviewCount": 4,
      "stock": 16,
      "inStock": true,
      "availabilityStatus": "Stokta",
      "badges": [
        "indirim"
      ],
      "isNew": false,
      "isBestSeller": false,
      "thumbnail": "https://cdn.dummyjson.com/product-images/mobile-accessories/apple-iphone-charger/thumbnail.webp",
      "images": [
        "https://cdn.dummyjson.com/product-images/mobile-accessories/apple-iphone-charger/1.webp"
      ],
      "variantOf": 94,
      "variantLabel": "Beyaz",
      "links": {
        "self": "https://api.aurora-commerce.dev/v1/products/284"
      }
    },
    {
      "id": 285,
      "sku": "AUR-MOB-APP-0285",
      "title": "Apple MagSafe Taşınabilir Batarya — Beyaz",
      "slug": "apple-magsafe-battery-pack",
      "brand": "Apple",
      "category": "mobile-accessories",
      "categoryName": "Telefon Aksesuarları",
      "unitPrice": 422991,
      "price": {
        "amount": 422991,
        "currency": "TRY",
        "formatted": "₺4.229,91",
        "compareAt": 510674,
        "compareAtFormatted": "₺5.106,74",
        "discountPercentage": 17.17,
        "savings": 87683,
        "savingsFormatted": "₺876,83"
      },
      "currency": "TRY",
      "rating": 3.43,
      "reviewCount": 2,
      "stock": 14,
      "inStock": true,
      "availabilityStatus": "Stokta",
      "badges": [
        "indirim"
      ],
      "isNew": false,
      "isBestSeller": false,
      "thumbnail": "https://cdn.dummyjson.com/product-images/mobile-accessories/apple-magsafe-battery-pack/thumbnail.webp",
      "images": [
        "https://cdn.dummyjson.com/product-images/mobile-accessories/apple-magsafe-battery-pack/1.webp"
      ],
      "variantOf": 95,
      "variantLabel": "Beyaz",
      "links": {
        "self": "https://api.aurora-commerce.dev/v1/products/285"
      }
    },
    {
      "id": 286,
      "sku": "AUR-MOB-APP-0286",
      "title": "Apple Watch Series 4 Altın — Beyaz",
      "slug": "apple-watch-series-4-gold",
      "brand": "Apple",
      "category": "mobile-accessories",
      "categoryName": "Telefon Aksesuarları",
      "unitPrice": 1891738,
      "price": {
        "amount": 1891738,
        "currency": "TRY",
        "formatted": "₺18.917,38",
        "compareAt": 2150191,
        "compareAtFormatted": "₺21.501,91",
        "discountPercentage": 12.02,
        "savings": 258453,
        "savingsFormatted": "₺2.584,53"
      },
      "currency": "TRY",
      "rating": 2.82,
      "reviewCount": 3,
      "stock": 50,
      "inStock": true,
      "availabilityStatus": "Stokta",
      "badges": [
        "indirim"
      ],
      "isNew": false,
      "isBestSeller": false,
      "thumbnail": "https://cdn.dummyjson.com/product-images/mobile-accessories/apple-watch-series-4-gold/thumbnail.webp",
      "images": [
        "https://cdn.dummyjson.com/product-images/mobile-accessories/apple-watch-series-4-gold/1.webp"
      ],
      "variantOf": 96,
      "variantLabel": "Beyaz",
      "links": {
        "self": "https://api.aurora-commerce.dev/v1/products/286"
      }
    },
    {
      "id": 287,
      "sku": "AUR-MOB-BEA-0287",
      "title": "Beats Flex Kablosuz Kulaklık — Beyaz",
      "slug": "beats-flex-wireless-earphones",
      "brand": "Beats",
      "category": "mobile-accessories",
      "categoryName": "Telefon Aksesuarları",
      "unitPrice": 258489,
      "price": {
        "amount": 258489,
        "currency": "TRY",
        "formatted": "₺2.584,89",
        "compareAt": 274201,
        "compareAtFormatted": "₺2.742,01",
        "discountPercentage": 5.73,
        "savings": 15712,
        "savingsFormatted": "₺157,12"
      },
      "currency": "TRY",
      "rating": 4.35,
      "reviewCount": 2,
      "stock": 73,
      "inStock": true,
      "availabilityStatus": "Stokta",
      "badges": [],
      "isNew": false,
      "isBestSeller": false,
      "thumbnail": "https://cdn.dummyjson.com/product-images/mobile-accessories/beats-flex-wireless-earphones/thumbnail.webp",
      "images": [
        "https://cdn.dummyjson.com/product-images/mobile-accessories/beats-flex-wireless-earphones/1.webp"
      ],
      "variantOf": 97,
      "variantLabel": "Beyaz",
      "links": {
        "self": "https://api.aurora-commerce.dev/v1/products/287"
      }
    },
    {
      "id": 288,
      "sku": "AUR-MOB-APP-0288",
      "title": "iPhone 12 MagSafe Silikon Kılıf Erik Moru — Beyaz",
      "slug": "iphone-12-silicone-case-with-magsafe-plum",
      "brand": "Apple",
      "category": "mobile-accessories",
      "categoryName": "Telefon Aksesuarları",
      "unitPrice": 160988,
      "price": {
        "amount": 160988,
        "currency": "TRY",
        "formatted": "₺1.609,88",
        "compareAt": 186869,
        "compareAtFormatted": "₺1.868,69",
        "discountPercentage": 13.85,
        "savings": 25881,
        "savingsFormatted": "₺258,81"
      },
      "currency": "TRY",
      "rating": 3.51,
      "reviewCount": 5,
      "stock": 83,
      "inStock": true,
      "availabilityStatus": "Stokta",
      "badges": [
        "indirim"
      ],
      "isNew": true,
      "isBestSeller": false,
      "thumbnail": "https://cdn.dummyjson.com/product-images/mobile-accessories/iphone-12-silicone-case-with-magsafe-plum/thumbnail.webp",
      "images": [
        "https://cdn.dummyjson.com/product-images/mobile-accessories/iphone-12-silicone-case-with-magsafe-plum/1.webp"
      ],
      "variantOf": 98,
      "variantLabel": "Beyaz",
      "links": {
        "self": "https://api.aurora-commerce.dev/v1/products/288"
      }
    },
    {
      "id": 289,
      "sku": "AUR-MOB-TEC-0289",
      "title": "Monopod — Beyaz",
      "slug": "monopod",
      "brand": "TechGear",
      "category": "mobile-accessories",
      "categoryName": "Telefon Aksesuarları",
      "unitPrice": 84591,
      "price": {
        "amount": 84591,
        "currency": "TRY",
        "formatted": "₺845,91",
        "compareAt": 92530,
        "compareAtFormatted": "₺925,30",
        "discountPercentage": 8.58,
        "savings": 7939,
        "savingsFormatted": "₺79,39"
      },
      "currency": "TRY",
      "rating": 4.71,
      "reviewCount": 2,
      "stock": 55,
      "inStock": true,
      "availabilityStatus": "Stokta",
      "badges": [],
      "isNew": false,
      "isBestSeller": false,
      "thumbnail": "https://cdn.dummyjson.com/product-images/mobile-accessories/monopod/thumbnail.webp",
      "images": [
        "https://cdn.dummyjson.com/product-images/mobile-accessories/monopod/1.webp"
      ],
      "variantOf": 99,
      "variantLabel": "Beyaz",
      "links": {
        "self": "https://api.aurora-commerce.dev/v1/products/289"
      }
    },
    {
      "id": 290,
      "sku": "AUR-MOB-GAD-0290",
      "title": "iPhone'lu Selfie Işığı — Beyaz",
      "slug": "selfie-lamp-with-iphone",
      "brand": "GadgetMaster",
      "category": "mobile-accessories",
      "categoryName": "Telefon Aksesuarları",
      "unitPrice": 76989,
      "price": {
        "amount": 76989,
        "currency": "TRY",
        "formatted": "₺769,89",
        "compareAt": 95520,
        "compareAtFormatted": "₺955,20",
        "discountPercentage": 19.4,
        "savings": 18531,
        "savingsFormatted": "₺185,31"
      },
      "currency": "TRY",
      "rating": 3.51,
      "reviewCount": 2,
      "stock": 82,
      "inStock": true,
      "availabilityStatus": "Stokta",
      "badges": [
        "indirim"
      ],
      "isNew": false,
      "isBestSeller": false,
      "thumbnail": "https://cdn.dummyjson.com/product-images/mobile-accessories/selfie-lamp-with-iphone/thumbnail.webp",
      "images": [
        "https://cdn.dummyjson.com/product-images/mobile-accessories/selfie-lamp-with-iphone/1.webp"
      ],
      "variantOf": 100,
      "variantLabel": "Beyaz",
      "links": {
        "self": "https://api.aurora-commerce.dev/v1/products/290"
      }
    },
    {
      "id": 291,
      "sku": "AUR-MOB-SNA-0291",
      "title": "Selfie Çubuğu Monopod — Beyaz",
      "slug": "selfie-stick-monopod",
      "brand": "SnapTech",
      "category": "mobile-accessories",
      "categoryName": "Telefon Aksesuarları",
      "unitPrice": 67089,
      "price": {
        "amount": 67089,
        "currency": "TRY",
        "formatted": "₺670,89",
        "compareAt": 82949,
        "compareAtFormatted": "₺829,49",
        "discountPercentage": 19.12,
        "savings": 15860,
        "savingsFormatted": "₺158,60"
      },
      "currency": "TRY",
      "rating": 4.13,
      "reviewCount": 5,
      "stock": 36,
      "inStock": true,
      "availabilityStatus": "Stokta",
      "badges": [
        "indirim"
      ],
      "isNew": false,
      "isBestSeller": false,
      "thumbnail": "https://cdn.dummyjson.com/product-images/mobile-accessories/selfie-stick-monopod/thumbnail.webp",
      "images": [
        "https://cdn.dummyjson.com/product-images/mobile-accessories/selfie-stick-monopod/1.webp"
      ],
      "variantOf": 101,
      "variantLabel": "Beyaz",
      "links": {
        "self": "https://api.aurora-commerce.dev/v1/products/291"
      }
    },
    {
      "id": 292,
      "sku": "AUR-MOB-PRO-0292",
      "title": "TV Stüdyo Kamera Ayağı — Beyaz",
      "slug": "tv-studio-camera-pedestal",
      "brand": "ProVision",
      "category": "mobile-accessories",
      "categoryName": "Telefon Aksesuarları",
      "unitPrice": 2349900,
      "price": {
        "amount": 2349900,
        "currency": "TRY",
        "formatted": "₺23.499,00",
        "compareAt": 2562875,
        "compareAtFormatted": "₺25.628,75",
        "discountPercentage": 8.31,
        "savings": 212975,
        "savingsFormatted": "₺2.129,75"
      },
      "currency": "TRY",
      "rating": 3.05,
      "reviewCount": 5,
      "stock": 17,
      "inStock": true,
      "availabilityStatus": "Stokta",
      "badges": [],
      "isNew": false,
      "isBestSeller": false,
      "thumbnail": "https://cdn.dummyjson.com/product-images/mobile-accessories/tv-studio-camera-pedestal/thumbnail.webp",
      "images": [
        "https://cdn.dummyjson.com/product-images/mobile-accessories/tv-studio-camera-pedestal/1.webp"
      ],
      "variantOf": 102,
      "variantLabel": "Beyaz",
      "links": {
        "self": "https://api.aurora-commerce.dev/v1/products/292"
      }
    },
    {
      "id": 293,
      "sku": "AUR-MOT-GEN-0293",
      "title": "Standart Motosiklet — Touring Sürüm",
      "slug": "generic-motorcycle",
      "brand": "Generic Motors",
      "category": "motorcycle",
      "categoryName": "Motosiklet",
      "unitPrice": 18799900,
      "price": {
        "amount": 18799900,
        "currency": "TRY",
        "formatted": "₺187.999,00",
        "compareAt": 21387827,
        "compareAtFormatted": "₺213.878,27",
        "discountPercentage": 12.1,
        "savings": 2587927,
        "savingsFormatted": "₺25.879,27"
      },
      "currency": "TRY",
      "rating": 5.0,
      "reviewCount": 2,
      "stock": 39,
      "inStock": true,
      "availabilityStatus": "Stokta",
      "badges": [
        "indirim"
      ],
      "isNew": true,
      "isBestSeller": true,
      "thumbnail": "https://cdn.dummyjson.com/product-images/motorcycle/generic-motorcycle/thumbnail.webp",
      "images": [
        "https://cdn.dummyjson.com/product-images/motorcycle/generic-motorcycle/1.webp"
      ],
      "variantOf": 103,
      "variantLabel": "Touring Sürüm",
      "links": {
        "self": "https://api.aurora-commerce.dev/v1/products/293"
      }
    },
    {
      "id": 294,
      "sku": "AUR-MOT-KAW-0294",
      "title": "Kawasaki Z800 — Touring Sürüm",
      "slug": "kawasaki-z800",
      "brand": "Kawasaki",
      "category": "motorcycle",
      "categoryName": "Motosiklet",
      "unitPrice": 46529890,
      "price": {
        "amount": 46529890,
        "currency": "TRY",
        "formatted": "₺465.298,90",
        "compareAt": 51568093,
        "compareAtFormatted": "₺515.680,93",
        "discountPercentage": 9.77,
        "savings": 5038203,
        "savingsFormatted": "₺50.382,03"
      },
      "currency": "TRY",
      "rating": 4.02,
      "reviewCount": 6,
      "stock": 57,
      "inStock": true,
      "availabilityStatus": "Stokta",
      "badges": [],
      "isNew": false,
      "isBestSeller": false,
      "thumbnail": "https://cdn.dummyjson.com/product-images/motorcycle/kawasaki-z800/thumbnail.webp",
      "images": [
        "https://cdn.dummyjson.com/product-images/motorcycle/kawasaki-z800/1.webp"
      ],
      "variantOf": 104,
      "variantLabel": "Touring Sürüm",
      "links": {
        "self": "https://api.aurora-commerce.dev/v1/products/294"
      }
    },
    {
      "id": 295,
      "sku": "AUR-MOT-MOT-0295",
      "title": "MotoGP CI.H1 — Touring Sürüm",
      "slug": "motogp-ci.h1",
      "brand": "MotoGP",
      "category": "motorcycle",
      "categoryName": "Motosiklet",
      "unitPrice": 70499900,
      "price": {
        "amount": 70499900,
        "currency": "TRY",
        "formatted": "₺704.999,00",
        "compareAt": 75741190,
        "compareAtFormatted": "₺757.411,90",
        "discountPercentage": 6.92,
        "savings": 5241290,
        "savingsFormatted": "₺52.412,90"
      },
      "currency": "TRY",
      "rating": 2.86,
      "reviewCount": 5,
      "stock": 27,
      "inStock": true,
      "availabilityStatus": "Stokta",
      "badges": [],
      "isNew": false,
      "isBestSeller": false,
      "thumbnail": "https://cdn.dummyjson.com/product-images/motorcycle/motogp-ci.h1/thumbnail.webp",
      "images": [
        "https://cdn.dummyjson.com/product-images/motorcycle/motogp-ci.h1/1.webp"
      ],
      "variantOf": 105,
      "variantLabel": "Touring Sürüm",
      "links": {
        "self": "https://api.aurora-commerce.dev/v1/products/295"
      }
    },
    {
      "id": 296,
      "sku": "AUR-MOT-SCO-0296",
      "title": "Scooter Motosiklet — Touring Sürüm",
      "slug": "scooter-motorcycle",
      "brand": "ScootMaster",
      "category": "motorcycle",
      "categoryName": "Motosiklet",
      "unitPrice": 15509890,
      "price": {
        "amount": 15509890,
        "currency": "TRY",
        "formatted": "₺155.098,90",
        "compareAt": 16547413,
        "compareAtFormatted": "₺165.474,13",
        "discountPercentage": 6.27,
        "savings": 1037523,
        "savingsFormatted": "₺10.375,23"
      },
      "currency": "TRY",
      "rating": 2.25,
      "reviewCount": 6,
      "stock": 97,
      "inStock": true,
      "availabilityStatus": "Stokta",
      "badges": [],
      "isNew": false,
      "isBestSeller": false,
      "thumbnail": "https://cdn.dummyjson.com/product-images/motorcycle/scooter-motorcycle/thumbnail.webp",
      "images": [
        "https://cdn.dummyjson.com/product-images/motorcycle/scooter-motorcycle/1.webp"
      ],
      "variantOf": 106,
      "variantLabel": "Touring Sürüm",
      "links": {
        "self": "https://api.aurora-commerce.dev/v1/products/296"
      }
    },
    {
      "id": 297,
      "sku": "AUR-MOT-SPE-0297",
      "title": "Sportbike Motosiklet — Touring Sürüm",
      "slug": "sportbike-motorcycle",
      "brand": "SpeedMaster",
      "category": "motorcycle",
      "categoryName": "Motosiklet",
      "unitPrice": 31679910,
      "price": {
        "amount": 31679910,
        "currency": "TRY",
        "formatted": "₺316.799,10",
        "compareAt": 35828896,
        "compareAtFormatted": "₺358.288,96",
        "discountPercentage": 11.58,
        "savings": 4148986,
        "savingsFormatted": "₺41.489,86"
      },
      "currency": "TRY",
      "rating": 3.7,
      "reviewCount": 2,
      "stock": 24,
      "inStock": true,
      "availabilityStatus": "Stokta",
      "badges": [],
      "isNew": true,
      "isBestSeller": false,
      "thumbnail": "https://cdn.dummyjson.com/product-images/motorcycle/sportbike-motorcycle/thumbnail.webp",
      "images": [
        "https://cdn.dummyjson.com/product-images/motorcycle/sportbike-motorcycle/1.webp"
      ],
      "variantOf": 107,
      "variantLabel": "Touring Sürüm",
      "links": {
        "self": "https://api.aurora-commerce.dev/v1/products/297"
      }
    },
    {
      "id": 298,
      "sku": "AUR-SMA-APP-0298",
      "title": "iPhone 5s — 128GB",
      "slug": "iphone-5s",
      "brand": "Apple",
      "category": "smartphones",
      "categoryName": "Akıllı Telefonlar",
      "unitPrice": 1033989,
      "price": {
        "amount": 1033989,
        "currency": "TRY",
        "formatted": "₺10.339,89",
        "compareAt": 1187265,
        "compareAtFormatted": "₺11.872,65",
        "discountPercentage": 12.91,
        "savings": 153276,
        "savingsFormatted": "₺1.532,76"
      },
      "currency": "TRY",
      "rating": 2.7,
      "reviewCount": 2,
      "stock": 14,
      "inStock": true,
      "availabilityStatus": "Stokta",
      "badges": [
        "indirim"
      ],
      "isNew": false,
      "isBestSeller": false,
      "thumbnail": "https://cdn.dummyjson.com/product-images/smartphones/iphone-5s/thumbnail.webp",
      "images": [
        "https://cdn.dummyjson.com/product-images/smartphones/iphone-5s/1.webp"
      ],
      "variantOf": 108,
      "variantLabel": "128GB",
      "links": {
        "self": "https://api.aurora-commerce.dev/v1/products/298"
      }
    },
    {
      "id": 299,
      "sku": "AUR-SMA-APP-0299",
      "title": "iPhone 6 — 128GB",
      "slug": "iphone-6",
      "brand": "Apple",
      "category": "smartphones",
      "categoryName": "Akıllı Telefonlar",
      "unitPrice": 1550989,
      "price": {
        "amount": 1550989,
        "currency": "TRY",
        "formatted": "₺15.509,89",
        "compareAt": 1662189,
        "compareAtFormatted": "₺16.621,89",
        "discountPercentage": 6.69,
        "savings": 111200,
        "savingsFormatted": "₺1.112,00"
      },
      "currency": "TRY",
      "rating": 3.12,
      "reviewCount": 6,
      "stock": 62,
      "inStock": true,
      "availabilityStatus": "Stokta",
      "badges": [],
      "isNew": true,
      "isBestSeller": false,
      "thumbnail": "https://cdn.dummyjson.com/product-images/smartphones/iphone-6/thumbnail.webp",
      "images": [
        "https://cdn.dummyjson.com/product-images/smartphones/iphone-6/1.webp"
      ],
      "variantOf": 109,
      "variantLabel": "128GB",
      "links": {
        "self": "https://api.aurora-commerce.dev/v1/products/299"
      }
    },
    {
      "id": 300,
      "sku": "AUR-SMA-APP-0300",
      "title": "iPhone 13 Pro — 128GB",
      "slug": "iphone-13-pro",
      "brand": "Apple",
      "category": "smartphones",
      "categoryName": "Akıllı Telefonlar",
      "unitPrice": 5664890,
      "price": {
        "amount": 5664890,
        "currency": "TRY",
        "formatted": "₺56.648,90",
        "compareAt": 6250568,
        "compareAtFormatted": "₺62.505,68",
        "discountPercentage": 9.37,
        "savings": 585678,
        "savingsFormatted": "₺5.856,78"
      },
      "currency": "TRY",
      "rating": 3.92,
      "reviewCount": 5,
      "stock": 67,
      "inStock": true,
      "availabilityStatus": "Stokta",
      "badges": [],
      "isNew": false,
      "isBestSeller": false,
      "thumbnail": "https://cdn.dummyjson.com/product-images/smartphones/iphone-13-pro/thumbnail.webp",
      "images": [
        "https://cdn.dummyjson.com/product-images/smartphones/iphone-13-pro/1.webp"
      ],
      "variantOf": 110,
      "variantLabel": "128GB",
      "links": {
        "self": "https://api.aurora-commerce.dev/v1/products/300"
      }
    }
  ],
  "pagination": {
    "page": 15,
    "pageSize": 20,
    "total": 320,
    "totalPages": 16,
    "hasNext": true,
    "hasPrev": true
  },
  "links": {
    "self": "https://api.aurora-commerce.dev/v1/products?page=15&pageSize=20",
    "first": "https://api.aurora-commerce.dev/v1/products?page=1&pageSize=20",
    "last": "https://api.aurora-commerce.dev/v1/products?page=16&pageSize=20",
    "next": "https://api.aurora-commerce.dev/v1/products?page=16&pageSize=20",
    "prev": "https://api.aurora-commerce.dev/v1/products?page=14&pageSize=20"
  },
  "filters": {
    "categories": [
      {
        "slug": "smartphones",
        "name": "Akıllı Telefonlar"
      },
      {
        "slug": "laptops",
        "name": "Dizüstü Bilgisayarlar"
      },
      {
        "slug": "tablets",
        "name": "Tabletler"
      },
      {
        "slug": "electronics",
        "name": "Elektronik"
      },
      {
        "slug": "mobile-accessories",
        "name": "Telefon Aksesuarları"
      },
      {
        "slug": "kitchen-accessories",
        "name": "Mutfak Gereçleri"
      },
      {
        "slug": "home-decoration",
        "name": "Ev Dekorasyonu"
      },
      {
        "slug": "furniture",
        "name": "Mobilya"
      },
      {
        "slug": "mens-watches",
        "name": "Erkek Saat"
      },
      {
        "slug": "sports-accessories",
        "name": "Spor Aksesuarları"
      },
      {
        "slug": "sunglasses",
        "name": "Güneş Gözlüğü"
      },
      {
        "slug": "mens-shoes",
        "name": "Erkek Ayakkabı"
      },
      {
        "slug": "apparel",
        "name": "Giyim"
      },
      {
        "slug": "mens-shirts",
        "name": "Erkek Gömlek"
      },
      {
        "slug": "motorcycle",
        "name": "Motosiklet"
      },
      {
        "slug": "vehicle",
        "name": "Araçlar"
      },
      {
        "slug": "groceries",
        "name": "Market"
      }
    ]
  },
  "meta": {
    "generatedAt": "2026-07-06T09:00:00.000Z",
    "currency": "TRY",
    "apiVersion": "v1"
  }
}