{
  "data": [
    {
      "id": 101,
      "sku": "AUR-MOB-SNA-0101",
      "title": "Selfie Çubuğu Monopod",
      "slug": "selfie-stick-monopod",
      "brand": "SnapTech",
      "category": "mobile-accessories",
      "categoryName": "Telefon Aksesuarları",
      "unitPrice": 60990,
      "price": {
        "amount": 60990,
        "currency": "TRY",
        "formatted": "₺609,90",
        "compareAt": 75408,
        "compareAtFormatted": "₺754,08",
        "discountPercentage": 19.12,
        "savings": 14418,
        "savingsFormatted": "₺144,18"
      },
      "currency": "TRY",
      "rating": 3.88,
      "reviewCount": 4,
      "stock": 11,
      "inStock": true,
      "availabilityStatus": "Stokta",
      "badges": [
        "indirim"
      ],
      "isNew": false,
      "isBestSeller": false,
      "thumbnail": "https://cdn.dummyjson.com/product-images/mobile-accessories/selfie-stick-monopod/thumbnail.webp",
      "images": [
        "https://cdn.dummyjson.com/product-images/mobile-accessories/selfie-stick-monopod/1.webp"
      ],
      "variantOf": null,
      "variantLabel": null,
      "links": {
        "self": "https://api.aurora-commerce.dev/v1/products/101"
      }
    },
    {
      "id": 102,
      "sku": "AUR-MOB-PRO-0102",
      "title": "TV Stüdyo Kamera Ayağı",
      "slug": "tv-studio-camera-pedestal",
      "brand": "ProVision",
      "category": "mobile-accessories",
      "categoryName": "Telefon Aksesuarları",
      "unitPrice": 2349900,
      "price": {
        "amount": 2349900,
        "currency": "TRY",
        "formatted": "₺23.499,00",
        "compareAt": 2562875,
        "compareAtFormatted": "₺25.628,75",
        "discountPercentage": 8.31,
        "savings": 212975,
        "savingsFormatted": "₺2.129,75"
      },
      "currency": "TRY",
      "rating": 2.78,
      "reviewCount": 3,
      "stock": 15,
      "inStock": true,
      "availabilityStatus": "Stokta",
      "badges": [],
      "isNew": false,
      "isBestSeller": false,
      "thumbnail": "https://cdn.dummyjson.com/product-images/mobile-accessories/tv-studio-camera-pedestal/thumbnail.webp",
      "images": [
        "https://cdn.dummyjson.com/product-images/mobile-accessories/tv-studio-camera-pedestal/1.webp"
      ],
      "variantOf": null,
      "variantLabel": null,
      "links": {
        "self": "https://api.aurora-commerce.dev/v1/products/102"
      }
    },
    {
      "id": 103,
      "sku": "AUR-MOT-GEN-0103",
      "title": "Standart Motosiklet",
      "slug": "generic-motorcycle",
      "brand": "Generic Motors",
      "category": "motorcycle",
      "categoryName": "Motosiklet",
      "unitPrice": 18799900,
      "price": {
        "amount": 18799900,
        "currency": "TRY",
        "formatted": "₺187.999,00",
        "compareAt": 21387827,
        "compareAtFormatted": "₺213.878,27",
        "discountPercentage": 12.1,
        "savings": 2587927,
        "savingsFormatted": "₺25.879,27"
      },
      "currency": "TRY",
      "rating": 4.91,
      "reviewCount": 4,
      "stock": 34,
      "inStock": true,
      "availabilityStatus": "Stokta",
      "badges": [
        "indirim",
        "yeni",
        "çok satan"
      ],
      "isNew": true,
      "isBestSeller": true,
      "thumbnail": "https://cdn.dummyjson.com/product-images/motorcycle/generic-motorcycle/thumbnail.webp",
      "images": [
        "https://cdn.dummyjson.com/product-images/motorcycle/generic-motorcycle/1.webp"
      ],
      "variantOf": null,
      "variantLabel": null,
      "links": {
        "self": "https://api.aurora-commerce.dev/v1/products/103"
      }
    },
    {
      "id": 104,
      "sku": "AUR-MOT-KAW-0104",
      "title": "Kawasaki Z800",
      "slug": "kawasaki-z800",
      "brand": "Kawasaki",
      "category": "motorcycle",
      "categoryName": "Motosiklet",
      "unitPrice": 42299900,
      "price": {
        "amount": 42299900,
        "currency": "TRY",
        "formatted": "₺422.999,00",
        "compareAt": 46880084,
        "compareAtFormatted": "₺468.800,84",
        "discountPercentage": 9.77,
        "savings": 4580184,
        "savingsFormatted": "₺45.801,84"
      },
      "currency": "TRY",
      "rating": 3.98,
      "reviewCount": 6,
      "stock": 52,
      "inStock": true,
      "availabilityStatus": "Stokta",
      "badges": [],
      "isNew": false,
      "isBestSeller": false,
      "thumbnail": "https://cdn.dummyjson.com/product-images/motorcycle/kawasaki-z800/thumbnail.webp",
      "images": [
        "https://cdn.dummyjson.com/product-images/motorcycle/kawasaki-z800/1.webp"
      ],
      "variantOf": null,
      "variantLabel": null,
      "links": {
        "self": "https://api.aurora-commerce.dev/v1/products/104"
      }
    },
    {
      "id": 105,
      "sku": "AUR-MOT-MOT-0105",
      "title": "MotoGP CI.H1",
      "slug": "motogp-ci.h1",
      "brand": "MotoGP",
      "category": "motorcycle",
      "categoryName": "Motosiklet",
      "unitPrice": 70499900,
      "price": {
        "amount": 70499900,
        "currency": "TRY",
        "formatted": "₺704.999,00",
        "compareAt": 75741190,
        "compareAtFormatted": "₺757.411,90",
        "discountPercentage": 6.92,
        "savings": 5241290,
        "savingsFormatted": "₺52.412,90"
      },
      "currency": "TRY",
      "rating": 2.97,
      "reviewCount": 3,
      "stock": 10,
      "inStock": true,
      "availabilityStatus": "Son Birkaç Ürün",
      "badges": [
        "son ürünler"
      ],
      "isNew": false,
      "isBestSeller": false,
      "thumbnail": "https://cdn.dummyjson.com/product-images/motorcycle/motogp-ci.h1/thumbnail.webp",
      "images": [
        "https://cdn.dummyjson.com/product-images/motorcycle/motogp-ci.h1/1.webp"
      ],
      "variantOf": null,
      "variantLabel": null,
      "links": {
        "self": "https://api.aurora-commerce.dev/v1/products/105"
      }
    },
    {
      "id": 106,
      "sku": "AUR-MOT-SCO-0106",
      "title": "Scooter Motosiklet",
      "slug": "scooter-motorcycle",
      "brand": "ScootMaster",
      "category": "motorcycle",
      "categoryName": "Motosiklet",
      "unitPrice": 14099900,
      "price": {
        "amount": 14099900,
        "currency": "TRY",
        "formatted": "₺140.999,00",
        "compareAt": 15043103,
        "compareAtFormatted": "₺150.431,03",
        "discountPercentage": 6.27,
        "savings": 943203,
        "savingsFormatted": "₺9.432,03"
      },
      "currency": "TRY",
      "rating": 2.53,
      "reviewCount": 5,
      "stock": 84,
      "inStock": true,
      "availabilityStatus": "Stokta",
      "badges": [],
      "isNew": false,
      "isBestSeller": false,
      "thumbnail": "https://cdn.dummyjson.com/product-images/motorcycle/scooter-motorcycle/thumbnail.webp",
      "images": [
        "https://cdn.dummyjson.com/product-images/motorcycle/scooter-motorcycle/1.webp"
      ],
      "variantOf": null,
      "variantLabel": null,
      "links": {
        "self": "https://api.aurora-commerce.dev/v1/products/106"
      }
    },
    {
      "id": 107,
      "sku": "AUR-MOT-SPE-0107",
      "title": "Sportbike Motosiklet",
      "slug": "sportbike-motorcycle",
      "brand": "SpeedMaster",
      "category": "motorcycle",
      "categoryName": "Motosiklet",
      "unitPrice": 35199900,
      "price": {
        "amount": 35199900,
        "currency": "TRY",
        "formatted": "₺351.999,00",
        "compareAt": 39809885,
        "compareAtFormatted": "₺398.098,85",
        "discountPercentage": 11.58,
        "savings": 4609985,
        "savingsFormatted": "₺46.099,85"
      },
      "currency": "TRY",
      "rating": 3.94,
      "reviewCount": 4,
      "stock": 0,
      "inStock": false,
      "availabilityStatus": "Stokta Yok",
      "badges": [
        "yeni",
        "tükendi"
      ],
      "isNew": true,
      "isBestSeller": false,
      "thumbnail": "https://cdn.dummyjson.com/product-images/motorcycle/sportbike-motorcycle/thumbnail.webp",
      "images": [
        "https://cdn.dummyjson.com/product-images/motorcycle/sportbike-motorcycle/1.webp"
      ],
      "variantOf": null,
      "variantLabel": null,
      "links": {
        "self": "https://api.aurora-commerce.dev/v1/products/107"
      }
    },
    {
      "id": 108,
      "sku": "AUR-SMA-APP-0108",
      "title": "iPhone 5s",
      "slug": "iphone-5s",
      "brand": "Apple",
      "category": "smartphones",
      "categoryName": "Akıllı Telefonlar",
      "unitPrice": 939990,
      "price": {
        "amount": 939990,
        "currency": "TRY",
        "formatted": "₺9.399,90",
        "compareAt": 1079332,
        "compareAtFormatted": "₺10.793,32",
        "discountPercentage": 12.91,
        "savings": 139342,
        "savingsFormatted": "₺1.393,42"
      },
      "currency": "TRY",
      "rating": 2.83,
      "reviewCount": 3,
      "stock": 25,
      "inStock": true,
      "availabilityStatus": "Stokta",
      "badges": [
        "indirim"
      ],
      "isNew": false,
      "isBestSeller": false,
      "thumbnail": "https://cdn.dummyjson.com/product-images/smartphones/iphone-5s/thumbnail.webp",
      "images": [
        "https://cdn.dummyjson.com/product-images/smartphones/iphone-5s/1.webp"
      ],
      "variantOf": null,
      "variantLabel": null,
      "links": {
        "self": "https://api.aurora-commerce.dev/v1/products/108"
      }
    },
    {
      "id": 109,
      "sku": "AUR-SMA-APP-0109",
      "title": "iPhone 6",
      "slug": "iphone-6",
      "brand": "Apple",
      "category": "smartphones",
      "categoryName": "Akıllı Telefonlar",
      "unitPrice": 1409990,
      "price": {
        "amount": 1409990,
        "currency": "TRY",
        "formatted": "₺14.099,90",
        "compareAt": 1511081,
        "compareAtFormatted": "₺15.110,81",
        "discountPercentage": 6.69,
        "savings": 101091,
        "savingsFormatted": "₺1.010,91"
      },
      "currency": "TRY",
      "rating": 3.41,
      "reviewCount": 4,
      "stock": 60,
      "inStock": true,
      "availabilityStatus": "Stokta",
      "badges": [
        "yeni"
      ],
      "isNew": true,
      "isBestSeller": false,
      "thumbnail": "https://cdn.dummyjson.com/product-images/smartphones/iphone-6/thumbnail.webp",
      "images": [
        "https://cdn.dummyjson.com/product-images/smartphones/iphone-6/1.webp"
      ],
      "variantOf": null,
      "variantLabel": null,
      "links": {
        "self": "https://api.aurora-commerce.dev/v1/products/109"
      }
    },
    {
      "id": 110,
      "sku": "AUR-SMA-APP-0110",
      "title": "iPhone 13 Pro",
      "slug": "iphone-13-pro",
      "brand": "Apple",
      "category": "smartphones",
      "categoryName": "Akıllı Telefonlar",
      "unitPrice": 5149900,
      "price": {
        "amount": 5149900,
        "currency": "TRY",
        "formatted": "₺51.499,00",
        "compareAt": 5682335,
        "compareAtFormatted": "₺56.823,35",
        "discountPercentage": 9.37,
        "savings": 532435,
        "savingsFormatted": "₺5.324,35"
      },
      "currency": "TRY",
      "rating": 4.12,
      "reviewCount": 2,
      "stock": 56,
      "inStock": true,
      "availabilityStatus": "Stokta",
      "badges": [],
      "isNew": false,
      "isBestSeller": false,
      "thumbnail": "https://cdn.dummyjson.com/product-images/smartphones/iphone-13-pro/thumbnail.webp",
      "images": [
        "https://cdn.dummyjson.com/product-images/smartphones/iphone-13-pro/1.webp"
      ],
      "variantOf": null,
      "variantLabel": null,
      "links": {
        "self": "https://api.aurora-commerce.dev/v1/products/110"
      }
    },
    {
      "id": 111,
      "sku": "AUR-SMA-APP-0111",
      "title": "iPhone X",
      "slug": "iphone-x",
      "brand": "Apple",
      "category": "smartphones",
      "categoryName": "Akıllı Telefonlar",
      "unitPrice": 4249900,
      "price": {
        "amount": 4249900,
        "currency": "TRY",
        "formatted": "₺42.499,00",
        "compareAt": 5285288,
        "compareAtFormatted": "₺52.852,88",
        "discountPercentage": 19.59,
        "savings": 1035388,
        "savingsFormatted": "₺10.353,88"
      },
      "currency": "TRY",
      "rating": 2.51,
      "reviewCount": 3,
      "stock": 37,
      "inStock": true,
      "availabilityStatus": "Stokta",
      "badges": [
        "indirim"
      ],
      "isNew": false,
      "isBestSeller": false,
      "thumbnail": "https://cdn.dummyjson.com/product-images/smartphones/iphone-x/thumbnail.webp",
      "images": [
        "https://cdn.dummyjson.com/product-images/smartphones/iphone-x/1.webp"
      ],
      "variantOf": null,
      "variantLabel": null,
      "links": {
        "self": "https://api.aurora-commerce.dev/v1/products/111"
      }
    },
    {
      "id": 112,
      "sku": "AUR-SMA-OPP-0112",
      "title": "Oppo A57",
      "slug": "oppo-a57",
      "brand": "Oppo",
      "category": "smartphones",
      "categoryName": "Akıllı Telefonlar",
      "unitPrice": 1174990,
      "price": {
        "amount": 1174990,
        "currency": "TRY",
        "formatted": "₺11.749,90",
        "compareAt": 1204253,
        "compareAtFormatted": "₺12.042,53",
        "discountPercentage": 2.43,
        "savings": 29263,
        "savingsFormatted": "₺292,63"
      },
      "currency": "TRY",
      "rating": 3.94,
      "reviewCount": 3,
      "stock": 19,
      "inStock": true,
      "availabilityStatus": "Stokta",
      "badges": [],
      "isNew": false,
      "isBestSeller": false,
      "thumbnail": "https://cdn.dummyjson.com/product-images/smartphones/oppo-a57/thumbnail.webp",
      "images": [
        "https://cdn.dummyjson.com/product-images/smartphones/oppo-a57/1.webp"
      ],
      "variantOf": null,
      "variantLabel": null,
      "links": {
        "self": "https://api.aurora-commerce.dev/v1/products/112"
      }
    },
    {
      "id": 113,
      "sku": "AUR-SMA-OPP-0113",
      "title": "Oppo F19 Pro Plus",
      "slug": "oppo-f19-pro-plus",
      "brand": "Oppo",
      "category": "smartphones",
      "categoryName": "Akıllı Telefonlar",
      "unitPrice": 1879990,
      "price": {
        "amount": 1879990,
        "currency": "TRY",
        "formatted": "₺18.799,90",
        "compareAt": 2310706,
        "compareAtFormatted": "₺23.107,06",
        "discountPercentage": 18.64,
        "savings": 430716,
        "savingsFormatted": "₺4.307,16"
      },
      "currency": "TRY",
      "rating": 3.51,
      "reviewCount": 3,
      "stock": 78,
      "inStock": true,
      "availabilityStatus": "Stokta",
      "badges": [
        "indirim",
        "yeni"
      ],
      "isNew": true,
      "isBestSeller": false,
      "thumbnail": "https://cdn.dummyjson.com/product-images/smartphones/oppo-f19-pro-plus/thumbnail.webp",
      "images": [
        "https://cdn.dummyjson.com/product-images/smartphones/oppo-f19-pro-plus/1.webp"
      ],
      "variantOf": null,
      "variantLabel": null,
      "links": {
        "self": "https://api.aurora-commerce.dev/v1/products/113"
      }
    },
    {
      "id": 114,
      "sku": "AUR-SMA-OPP-0114",
      "title": "Oppo K1",
      "slug": "oppo-k1",
      "brand": "Oppo",
      "category": "smartphones",
      "categoryName": "Akıllı Telefonlar",
      "unitPrice": 1409990,
      "price": {
        "amount": 1409990,
        "currency": "TRY",
        "formatted": "₺14.099,90",
        "compareAt": 1725603,
        "compareAtFormatted": "₺17.256,03",
        "discountPercentage": 18.29,
        "savings": 315613,
        "savingsFormatted": "₺3.156,13"
      },
      "currency": "TRY",
      "rating": 4.25,
      "reviewCount": 4,
      "stock": 55,
      "inStock": true,
      "availabilityStatus": "Stokta",
      "badges": [
        "indirim",
        "yeni"
      ],
      "isNew": true,
      "isBestSeller": false,
      "thumbnail": "https://cdn.dummyjson.com/product-images/smartphones/oppo-k1/thumbnail.webp",
      "images": [
        "https://cdn.dummyjson.com/product-images/smartphones/oppo-k1/1.webp"
      ],
      "variantOf": null,
      "variantLabel": null,
      "links": {
        "self": "https://api.aurora-commerce.dev/v1/products/114"
      }
    },
    {
      "id": 115,
      "sku": "AUR-SMA-REA-0115",
      "title": "Realme C35",
      "slug": "realme-c35",
      "brand": "Realme",
      "category": "smartphones",
      "categoryName": "Akıllı Telefonlar",
      "unitPrice": 704990,
      "price": {
        "amount": 704990,
        "currency": "TRY",
        "formatted": "₺7.049,90",
        "compareAt": 832338,
        "compareAtFormatted": "₺8.323,38",
        "discountPercentage": 15.3,
        "savings": 127348,
        "savingsFormatted": "₺1.273,48"
      },
      "currency": "TRY",
      "rating": 4.2,
      "reviewCount": 4,
      "stock": 48,
      "inStock": true,
      "availabilityStatus": "Stokta",
      "badges": [
        "indirim"
      ],
      "isNew": false,
      "isBestSeller": false,
      "thumbnail": "https://cdn.dummyjson.com/product-images/smartphones/realme-c35/thumbnail.webp",
      "images": [
        "https://cdn.dummyjson.com/product-images/smartphones/realme-c35/1.webp"
      ],
      "variantOf": null,
      "variantLabel": null,
      "links": {
        "self": "https://api.aurora-commerce.dev/v1/products/115"
      }
    },
    {
      "id": 116,
      "sku": "AUR-SMA-REA-0116",
      "title": "Realme X",
      "slug": "realme-x",
      "brand": "Realme",
      "category": "smartphones",
      "categoryName": "Akıllı Telefonlar",
      "unitPrice": 1409990,
      "price": {
        "amount": 1409990,
        "currency": "TRY",
        "formatted": "₺14.099,90",
        "compareAt": 1515304,
        "compareAtFormatted": "₺15.153,04",
        "discountPercentage": 6.95,
        "savings": 105314,
        "savingsFormatted": "₺1.053,14"
      },
      "currency": "TRY",
      "rating": 3.7,
      "reviewCount": 5,
      "stock": 12,
      "inStock": true,
      "availabilityStatus": "Stokta",
      "badges": [],
      "isNew": false,
      "isBestSeller": false,
      "thumbnail": "https://cdn.dummyjson.com/product-images/smartphones/realme-x/thumbnail.webp",
      "images": [
        "https://cdn.dummyjson.com/product-images/smartphones/realme-x/1.webp"
      ],
      "variantOf": null,
      "variantLabel": null,
      "links": {
        "self": "https://api.aurora-commerce.dev/v1/products/116"
      }
    },
    {
      "id": 117,
      "sku": "AUR-SMA-REA-0117",
      "title": "Realme XT",
      "slug": "realme-xt",
      "brand": "Realme",
      "category": "smartphones",
      "categoryName": "Akıllı Telefonlar",
      "unitPrice": 1644990,
      "price": {
        "amount": 1644990,
        "currency": "TRY",
        "formatted": "₺16.449,90",
        "compareAt": 1858956,
        "compareAtFormatted": "₺18.589,56",
        "discountPercentage": 11.51,
        "savings": 213966,
        "savingsFormatted": "₺2.139,66"
      },
      "currency": "TRY",
      "rating": 4.58,
      "reviewCount": 2,
      "stock": 80,
      "inStock": true,
      "availabilityStatus": "Stokta",
      "badges": [
        "yeni",
        "çok satan"
      ],
      "isNew": true,
      "isBestSeller": true,
      "thumbnail": "https://cdn.dummyjson.com/product-images/smartphones/realme-xt/thumbnail.webp",
      "images": [
        "https://cdn.dummyjson.com/product-images/smartphones/realme-xt/1.webp"
      ],
      "variantOf": null,
      "variantLabel": null,
      "links": {
        "self": "https://api.aurora-commerce.dev/v1/products/117"
      }
    },
    {
      "id": 118,
      "sku": "AUR-SMA-SAM-0118",
      "title": "Samsung Galaxy S7",
      "slug": "samsung-galaxy-s7",
      "brand": "Samsung",
      "category": "smartphones",
      "categoryName": "Akıllı Telefonlar",
      "unitPrice": 1409990,
      "price": {
        "amount": 1409990,
        "currency": "TRY",
        "formatted": "₺14.099,90",
        "compareAt": 1752629,
        "compareAtFormatted": "₺17.526,29",
        "discountPercentage": 19.55,
        "savings": 342639,
        "savingsFormatted": "₺3.426,39"
      },
      "currency": "TRY",
      "rating": 3.3,
      "reviewCount": 4,
      "stock": 67,
      "inStock": true,
      "availabilityStatus": "Stokta",
      "badges": [
        "indirim"
      ],
      "isNew": false,
      "isBestSeller": false,
      "thumbnail": "https://cdn.dummyjson.com/product-images/smartphones/samsung-galaxy-s7/thumbnail.webp",
      "images": [
        "https://cdn.dummyjson.com/product-images/smartphones/samsung-galaxy-s7/1.webp"
      ],
      "variantOf": null,
      "variantLabel": null,
      "links": {
        "self": "https://api.aurora-commerce.dev/v1/products/118"
      }
    },
    {
      "id": 119,
      "sku": "AUR-SMA-SAM-0119",
      "title": "Samsung Galaxy S8",
      "slug": "samsung-galaxy-s8",
      "brand": "Samsung",
      "category": "smartphones",
      "categoryName": "Akıllı Telefonlar",
      "unitPrice": 2349900,
      "price": {
        "amount": 2349900,
        "currency": "TRY",
        "formatted": "₺23.499,00",
        "compareAt": 2917318,
        "compareAtFormatted": "₺29.173,18",
        "discountPercentage": 19.45,
        "savings": 567418,
        "savingsFormatted": "₺5.674,18"
      },
      "currency": "TRY",
      "rating": 4.4,
      "reviewCount": 4,
      "stock": 0,
      "inStock": false,
      "availabilityStatus": "Stokta Yok",
      "badges": [
        "indirim",
        "tükendi"
      ],
      "isNew": false,
      "isBestSeller": false,
      "thumbnail": "https://cdn.dummyjson.com/product-images/smartphones/samsung-galaxy-s8/thumbnail.webp",
      "images": [
        "https://cdn.dummyjson.com/product-images/smartphones/samsung-galaxy-s8/1.webp"
      ],
      "variantOf": null,
      "variantLabel": null,
      "links": {
        "self": "https://api.aurora-commerce.dev/v1/products/119"
      }
    },
    {
      "id": 120,
      "sku": "AUR-SMA-SAM-0120",
      "title": "Samsung Galaxy S10",
      "slug": "samsung-galaxy-s10",
      "brand": "Samsung",
      "category": "smartphones",
      "categoryName": "Akıllı Telefonlar",
      "unitPrice": 3299900,
      "price": {
        "amount": 3299900,
        "currency": "TRY",
        "formatted": "₺32.999,00",
        "compareAt": 3495287,
        "compareAtFormatted": "₺34.952,87",
        "discountPercentage": 5.59,
        "savings": 195387,
        "savingsFormatted": "₺1.953,87"
      },
      "currency": "TRY",
      "rating": 3.06,
      "reviewCount": 2,
      "stock": 19,
      "inStock": true,
      "availabilityStatus": "Stokta",
      "badges": [],
      "isNew": false,
      "isBestSeller": false,
      "thumbnail": "https://cdn.dummyjson.com/product-images/smartphones/samsung-galaxy-s10/thumbnail.webp",
      "images": [
        "https://cdn.dummyjson.com/product-images/smartphones/samsung-galaxy-s10/1.webp"
      ],
      "variantOf": null,
      "variantLabel": null,
      "links": {
        "self": "https://api.aurora-commerce.dev/v1/products/120"
      }
    }
  ],
  "pagination": {
    "page": 6,
    "pageSize": 20,
    "total": 320,
    "totalPages": 16,
    "hasNext": true,
    "hasPrev": true
  },
  "links": {
    "self": "https://api.aurora-commerce.dev/v1/products?page=6&pageSize=20",
    "first": "https://api.aurora-commerce.dev/v1/products?page=1&pageSize=20",
    "last": "https://api.aurora-commerce.dev/v1/products?page=16&pageSize=20",
    "next": "https://api.aurora-commerce.dev/v1/products?page=7&pageSize=20",
    "prev": "https://api.aurora-commerce.dev/v1/products?page=5&pageSize=20"
  },
  "filters": {
    "categories": [
      {
        "slug": "smartphones",
        "name": "Akıllı Telefonlar"
      },
      {
        "slug": "laptops",
        "name": "Dizüstü Bilgisayarlar"
      },
      {
        "slug": "tablets",
        "name": "Tabletler"
      },
      {
        "slug": "electronics",
        "name": "Elektronik"
      },
      {
        "slug": "mobile-accessories",
        "name": "Telefon Aksesuarları"
      },
      {
        "slug": "kitchen-accessories",
        "name": "Mutfak Gereçleri"
      },
      {
        "slug": "home-decoration",
        "name": "Ev Dekorasyonu"
      },
      {
        "slug": "furniture",
        "name": "Mobilya"
      },
      {
        "slug": "mens-watches",
        "name": "Erkek Saat"
      },
      {
        "slug": "sports-accessories",
        "name": "Spor Aksesuarları"
      },
      {
        "slug": "sunglasses",
        "name": "Güneş Gözlüğü"
      },
      {
        "slug": "mens-shoes",
        "name": "Erkek Ayakkabı"
      },
      {
        "slug": "apparel",
        "name": "Giyim"
      },
      {
        "slug": "mens-shirts",
        "name": "Erkek Gömlek"
      },
      {
        "slug": "motorcycle",
        "name": "Motosiklet"
      },
      {
        "slug": "vehicle",
        "name": "Araçlar"
      },
      {
        "slug": "groceries",
        "name": "Market"
      }
    ]
  },
  "meta": {
    "generatedAt": "2026-07-06T09:00:00.000Z",
    "currency": "TRY",
    "apiVersion": "v1"
  }
}