{
  "data": [
    {
      "id": 121,
      "sku": "AUR-SMA-VIV-0121",
      "title": "Vivo S1",
      "slug": "vivo-s1",
      "brand": "Vivo",
      "category": "smartphones",
      "categoryName": "Akıllı Telefonlar",
      "unitPrice": 1174990,
      "price": {
        "amount": 1174990,
        "currency": "TRY",
        "formatted": "₺11.749,90",
        "compareAt": 1308015,
        "compareAtFormatted": "₺13.080,15",
        "discountPercentage": 10.17,
        "savings": 133025,
        "savingsFormatted": "₺1.330,25"
      },
      "currency": "TRY",
      "rating": 3.5,
      "reviewCount": 4,
      "stock": 50,
      "inStock": true,
      "availabilityStatus": "Stokta",
      "badges": [
        "yeni"
      ],
      "isNew": true,
      "isBestSeller": false,
      "thumbnail": "https://cdn.dummyjson.com/product-images/smartphones/vivo-s1/thumbnail.webp",
      "images": [
        "https://cdn.dummyjson.com/product-images/smartphones/vivo-s1/1.webp"
      ],
      "variantOf": null,
      "variantLabel": null,
      "links": {
        "self": "https://api.aurora-commerce.dev/v1/products/121"
      }
    },
    {
      "id": 122,
      "sku": "AUR-SMA-VIV-0122",
      "title": "Vivo V9",
      "slug": "vivo-v9",
      "brand": "Vivo",
      "category": "smartphones",
      "categoryName": "Akıllı Telefonlar",
      "unitPrice": 1409990,
      "price": {
        "amount": 1409990,
        "currency": "TRY",
        "formatted": "₺14.099,90",
        "compareAt": 1712608,
        "compareAtFormatted": "₺17.126,08",
        "discountPercentage": 17.67,
        "savings": 302618,
        "savingsFormatted": "₺3.026,18"
      },
      "currency": "TRY",
      "rating": 3.6,
      "reviewCount": 3,
      "stock": 82,
      "inStock": true,
      "availabilityStatus": "Stokta",
      "badges": [
        "indirim"
      ],
      "isNew": false,
      "isBestSeller": false,
      "thumbnail": "https://cdn.dummyjson.com/product-images/smartphones/vivo-v9/thumbnail.webp",
      "images": [
        "https://cdn.dummyjson.com/product-images/smartphones/vivo-v9/1.webp"
      ],
      "variantOf": null,
      "variantLabel": null,
      "links": {
        "self": "https://api.aurora-commerce.dev/v1/products/122"
      }
    },
    {
      "id": 123,
      "sku": "AUR-SMA-VIV-0123",
      "title": "Vivo X21",
      "slug": "vivo-x21",
      "brand": "Vivo",
      "category": "smartphones",
      "categoryName": "Akıllı Telefonlar",
      "unitPrice": 2349900,
      "price": {
        "amount": 2349900,
        "currency": "TRY",
        "formatted": "₺23.499,00",
        "compareAt": 2845260,
        "compareAtFormatted": "₺28.452,60",
        "discountPercentage": 17.41,
        "savings": 495360,
        "savingsFormatted": "₺4.953,60"
      },
      "currency": "TRY",
      "rating": 4.26,
      "reviewCount": 2,
      "stock": 7,
      "inStock": true,
      "availabilityStatus": "Son Birkaç Ürün",
      "badges": [
        "indirim",
        "son ürünler"
      ],
      "isNew": false,
      "isBestSeller": false,
      "thumbnail": "https://cdn.dummyjson.com/product-images/smartphones/vivo-x21/thumbnail.webp",
      "images": [
        "https://cdn.dummyjson.com/product-images/smartphones/vivo-x21/1.webp"
      ],
      "variantOf": null,
      "variantLabel": null,
      "links": {
        "self": "https://api.aurora-commerce.dev/v1/products/123"
      }
    },
    {
      "id": 124,
      "sku": "AUR-SPO-AUR-0124",
      "title": "Amerikan Futbolu Topu",
      "slug": "american-football",
      "brand": "Aurora Sport",
      "category": "sports-accessories",
      "categoryName": "Spor Aksesuarları",
      "unitPrice": 93990,
      "price": {
        "amount": 93990,
        "currency": "TRY",
        "formatted": "₺939,90",
        "compareAt": 98864,
        "compareAtFormatted": "₺988,64",
        "discountPercentage": 4.93,
        "savings": 4874,
        "savingsFormatted": "₺48,74"
      },
      "currency": "TRY",
      "rating": 4.91,
      "reviewCount": 5,
      "stock": 53,
      "inStock": true,
      "availabilityStatus": "Stokta",
      "badges": [
        "yeni",
        "çok satan"
      ],
      "isNew": true,
      "isBestSeller": true,
      "thumbnail": "https://cdn.dummyjson.com/product-images/sports-accessories/american-football/thumbnail.webp",
      "images": [
        "https://cdn.dummyjson.com/product-images/sports-accessories/american-football/1.webp"
      ],
      "variantOf": null,
      "variantLabel": null,
      "links": {
        "self": "https://api.aurora-commerce.dev/v1/products/124"
      }
    },
    {
      "id": 125,
      "sku": "AUR-SPO-AUR-0125",
      "title": "Beyzbol Topu",
      "slug": "baseball-ball",
      "brand": "Aurora Sport",
      "category": "sports-accessories",
      "categoryName": "Spor Aksesuarları",
      "unitPrice": 41990,
      "price": {
        "amount": 41990,
        "currency": "TRY",
        "formatted": "₺419,90",
        "compareAt": 42721,
        "compareAtFormatted": "₺427,21",
        "discountPercentage": 1.71,
        "savings": 731,
        "savingsFormatted": "₺7,31"
      },
      "currency": "TRY",
      "rating": 2.57,
      "reviewCount": 5,
      "stock": 100,
      "inStock": true,
      "availabilityStatus": "Stokta",
      "badges": [],
      "isNew": false,
      "isBestSeller": false,
      "thumbnail": "https://cdn.dummyjson.com/product-images/sports-accessories/baseball-ball/thumbnail.webp",
      "images": [
        "https://cdn.dummyjson.com/product-images/sports-accessories/baseball-ball/1.webp"
      ],
      "variantOf": null,
      "variantLabel": null,
      "links": {
        "self": "https://api.aurora-commerce.dev/v1/products/125"
      }
    },
    {
      "id": 126,
      "sku": "AUR-SPO-AUR-0126",
      "title": "Beyzbol Eldiveni",
      "slug": "baseball-glove",
      "brand": "Aurora Sport",
      "category": "sports-accessories",
      "categoryName": "Spor Aksesuarları",
      "unitPrice": 114990,
      "price": {
        "amount": 114990,
        "currency": "TRY",
        "formatted": "₺1.149,90",
        "compareAt": 118424,
        "compareAtFormatted": "₺1.184,24",
        "discountPercentage": 2.9,
        "savings": 3434,
        "savingsFormatted": "₺34,34"
      },
      "currency": "TRY",
      "rating": 3.96,
      "reviewCount": 6,
      "stock": 22,
      "inStock": true,
      "availabilityStatus": "Stokta",
      "badges": [],
      "isNew": false,
      "isBestSeller": false,
      "thumbnail": "https://cdn.dummyjson.com/product-images/sports-accessories/baseball-glove/thumbnail.webp",
      "images": [
        "https://cdn.dummyjson.com/product-images/sports-accessories/baseball-glove/1.webp"
      ],
      "variantOf": null,
      "variantLabel": null,
      "links": {
        "self": "https://api.aurora-commerce.dev/v1/products/126"
      }
    },
    {
      "id": 127,
      "sku": "AUR-SPO-AUR-0127",
      "title": "Basketbol Topu",
      "slug": "basketball",
      "brand": "Aurora Sport",
      "category": "sports-accessories",
      "categoryName": "Spor Aksesuarları",
      "unitPrice": 69990,
      "price": {
        "amount": 69990,
        "currency": "TRY",
        "formatted": "₺699,90",
        "compareAt": 75616,
        "compareAtFormatted": "₺756,16",
        "discountPercentage": 7.44,
        "savings": 5626,
        "savingsFormatted": "₺56,26"
      },
      "currency": "TRY",
      "rating": 4.66,
      "reviewCount": 3,
      "stock": 75,
      "inStock": true,
      "availabilityStatus": "Stokta",
      "badges": [
        "çok satan"
      ],
      "isNew": false,
      "isBestSeller": true,
      "thumbnail": "https://cdn.dummyjson.com/product-images/sports-accessories/basketball/thumbnail.webp",
      "images": [
        "https://cdn.dummyjson.com/product-images/sports-accessories/basketball/1.webp"
      ],
      "variantOf": null,
      "variantLabel": null,
      "links": {
        "self": "https://api.aurora-commerce.dev/v1/products/127"
      }
    },
    {
      "id": 128,
      "sku": "AUR-SPO-AUR-0128",
      "title": "Basketbol Potası Çemberi",
      "slug": "basketball-rim",
      "brand": "Aurora Sport",
      "category": "sports-accessories",
      "categoryName": "Spor Aksesuarları",
      "unitPrice": 189990,
      "price": {
        "amount": 189990,
        "currency": "TRY",
        "formatted": "₺1.899,90",
        "compareAt": 205929,
        "compareAtFormatted": "₺2.059,29",
        "discountPercentage": 7.74,
        "savings": 15939,
        "savingsFormatted": "₺159,39"
      },
      "currency": "TRY",
      "rating": 4.6,
      "reviewCount": 4,
      "stock": 43,
      "inStock": true,
      "availabilityStatus": "Stokta",
      "badges": [
        "çok satan"
      ],
      "isNew": false,
      "isBestSeller": true,
      "thumbnail": "https://cdn.dummyjson.com/product-images/sports-accessories/basketball-rim/thumbnail.webp",
      "images": [
        "https://cdn.dummyjson.com/product-images/sports-accessories/basketball-rim/1.webp"
      ],
      "variantOf": null,
      "variantLabel": null,
      "links": {
        "self": "https://api.aurora-commerce.dev/v1/products/128"
      }
    },
    {
      "id": 129,
      "sku": "AUR-SPO-AUR-0129",
      "title": "Kriket Topu",
      "slug": "cricket-ball",
      "brand": "Aurora Sport",
      "category": "sports-accessories",
      "categoryName": "Spor Aksesuarları",
      "unitPrice": 60990,
      "price": {
        "amount": 60990,
        "currency": "TRY",
        "formatted": "₺609,90",
        "compareAt": 66751,
        "compareAtFormatted": "₺667,51",
        "discountPercentage": 8.63,
        "savings": 5761,
        "savingsFormatted": "₺57,61"
      },
      "currency": "TRY",
      "rating": 3.53,
      "reviewCount": 3,
      "stock": 30,
      "inStock": true,
      "availabilityStatus": "Stokta",
      "badges": [],
      "isNew": false,
      "isBestSeller": false,
      "thumbnail": "https://cdn.dummyjson.com/product-images/sports-accessories/cricket-ball/thumbnail.webp",
      "images": [
        "https://cdn.dummyjson.com/product-images/sports-accessories/cricket-ball/1.webp"
      ],
      "variantOf": null,
      "variantLabel": null,
      "links": {
        "self": "https://api.aurora-commerce.dev/v1/products/129"
      }
    },
    {
      "id": 130,
      "sku": "AUR-SPO-AUR-0130",
      "title": "Kriket Sopası",
      "slug": "cricket-bat",
      "brand": "Aurora Sport",
      "category": "sports-accessories",
      "categoryName": "Spor Aksesuarları",
      "unitPrice": 139990,
      "price": {
        "amount": 139990,
        "currency": "TRY",
        "formatted": "₺1.399,90",
        "compareAt": 144752,
        "compareAtFormatted": "₺1.447,52",
        "discountPercentage": 3.29,
        "savings": 4762,
        "savingsFormatted": "₺47,62"
      },
      "currency": "TRY",
      "rating": 3.17,
      "reviewCount": 2,
      "stock": 98,
      "inStock": true,
      "availabilityStatus": "Stokta",
      "badges": [],
      "isNew": false,
      "isBestSeller": false,
      "thumbnail": "https://cdn.dummyjson.com/product-images/sports-accessories/cricket-bat/thumbnail.webp",
      "images": [
        "https://cdn.dummyjson.com/product-images/sports-accessories/cricket-bat/1.webp"
      ],
      "variantOf": null,
      "variantLabel": null,
      "links": {
        "self": "https://api.aurora-commerce.dev/v1/products/130"
      }
    },
    {
      "id": 131,
      "sku": "AUR-SPO-AUR-0131",
      "title": "Kriket Kaskı",
      "slug": "cricket-helmet",
      "brand": "Aurora Sport",
      "category": "sports-accessories",
      "categoryName": "Spor Aksesuarları",
      "unitPrice": 209990,
      "price": {
        "amount": 209990,
        "currency": "TRY",
        "formatted": "₺2.099,90",
        "compareAt": 232393,
        "compareAtFormatted": "₺2.323,93",
        "discountPercentage": 9.64,
        "savings": 22403,
        "savingsFormatted": "₺224,03"
      },
      "currency": "TRY",
      "rating": 4.69,
      "reviewCount": 2,
      "stock": 10,
      "inStock": true,
      "availabilityStatus": "Son Birkaç Ürün",
      "badges": [
        "çok satan",
        "son ürünler"
      ],
      "isNew": false,
      "isBestSeller": true,
      "thumbnail": "https://cdn.dummyjson.com/product-images/sports-accessories/cricket-helmet/thumbnail.webp",
      "images": [
        "https://cdn.dummyjson.com/product-images/sports-accessories/cricket-helmet/1.webp"
      ],
      "variantOf": null,
      "variantLabel": null,
      "links": {
        "self": "https://api.aurora-commerce.dev/v1/products/131"
      }
    },
    {
      "id": 132,
      "sku": "AUR-SPO-AUR-0132",
      "title": "Kriket Kalesi",
      "slug": "cricket-wicket",
      "brand": "Aurora Sport",
      "category": "sports-accessories",
      "categoryName": "Spor Aksesuarları",
      "unitPrice": 139990,
      "price": {
        "amount": 139990,
        "currency": "TRY",
        "formatted": "₺1.399,90",
        "compareAt": 168521,
        "compareAtFormatted": "₺1.685,21",
        "discountPercentage": 16.93,
        "savings": 28531,
        "savingsFormatted": "₺285,31"
      },
      "currency": "TRY",
      "rating": 4.73,
      "reviewCount": 3,
      "stock": 25,
      "inStock": true,
      "availabilityStatus": "Stokta",
      "badges": [
        "indirim",
        "çok satan"
      ],
      "isNew": false,
      "isBestSeller": true,
      "thumbnail": "https://cdn.dummyjson.com/product-images/sports-accessories/cricket-wicket/thumbnail.webp",
      "images": [
        "https://cdn.dummyjson.com/product-images/sports-accessories/cricket-wicket/1.webp"
      ],
      "variantOf": null,
      "variantLabel": null,
      "links": {
        "self": "https://api.aurora-commerce.dev/v1/products/132"
      }
    },
    {
      "id": 133,
      "sku": "AUR-SPO-AUR-0133",
      "title": "Tüylü Badminton Topu",
      "slug": "feather-shuttlecock",
      "brand": "Aurora Sport",
      "category": "sports-accessories",
      "categoryName": "Spor Aksesuarları",
      "unitPrice": 27990,
      "price": {
        "amount": 27990,
        "currency": "TRY",
        "formatted": "₺279,90",
        "compareAt": 28841,
        "compareAtFormatted": "₺288,41",
        "discountPercentage": 2.95,
        "savings": 851,
        "savingsFormatted": "₺8,51"
      },
      "currency": "TRY",
      "rating": 2.85,
      "reviewCount": 4,
      "stock": 95,
      "inStock": true,
      "availabilityStatus": "Stokta",
      "badges": [],
      "isNew": false,
      "isBestSeller": false,
      "thumbnail": "https://cdn.dummyjson.com/product-images/sports-accessories/feather-shuttlecock/thumbnail.webp",
      "images": [
        "https://cdn.dummyjson.com/product-images/sports-accessories/feather-shuttlecock/1.webp"
      ],
      "variantOf": null,
      "variantLabel": null,
      "links": {
        "self": "https://api.aurora-commerce.dev/v1/products/133"
      }
    },
    {
      "id": 134,
      "sku": "AUR-SPO-AUR-0134",
      "title": "Futbol Topu",
      "slug": "football",
      "brand": "Aurora Sport",
      "category": "sports-accessories",
      "categoryName": "Spor Aksesuarları",
      "unitPrice": 84990,
      "price": {
        "amount": 84990,
        "currency": "TRY",
        "formatted": "₺849,90",
        "compareAt": 89605,
        "compareAtFormatted": "₺896,05",
        "discountPercentage": 5.15,
        "savings": 4615,
        "savingsFormatted": "₺46,15"
      },
      "currency": "TRY",
      "rating": 3.28,
      "reviewCount": 5,
      "stock": 96,
      "inStock": true,
      "availabilityStatus": "Stokta",
      "badges": [],
      "isNew": false,
      "isBestSeller": false,
      "thumbnail": "https://cdn.dummyjson.com/product-images/sports-accessories/football/thumbnail.webp",
      "images": [
        "https://cdn.dummyjson.com/product-images/sports-accessories/football/1.webp"
      ],
      "variantOf": null,
      "variantLabel": null,
      "links": {
        "self": "https://api.aurora-commerce.dev/v1/products/134"
      }
    },
    {
      "id": 135,
      "sku": "AUR-SPO-AUR-0135",
      "title": "Golf Topu",
      "slug": "golf-ball",
      "brand": "Aurora Sport",
      "category": "sports-accessories",
      "categoryName": "Spor Aksesuarları",
      "unitPrice": 46990,
      "price": {
        "amount": 46990,
        "currency": "TRY",
        "formatted": "₺469,90",
        "compareAt": 56868,
        "compareAtFormatted": "₺568,68",
        "discountPercentage": 17.37,
        "savings": 9878,
        "savingsFormatted": "₺98,78"
      },
      "currency": "TRY",
      "rating": 4.3,
      "reviewCount": 5,
      "stock": 84,
      "inStock": true,
      "availabilityStatus": "Stokta",
      "badges": [
        "indirim"
      ],
      "isNew": false,
      "isBestSeller": false,
      "thumbnail": "https://cdn.dummyjson.com/product-images/sports-accessories/golf-ball/thumbnail.webp",
      "images": [
        "https://cdn.dummyjson.com/product-images/sports-accessories/golf-ball/1.webp"
      ],
      "variantOf": null,
      "variantLabel": null,
      "links": {
        "self": "https://api.aurora-commerce.dev/v1/products/135"
      }
    },
    {
      "id": 136,
      "sku": "AUR-SPO-AUR-0136",
      "title": "Golf Sopası (Demir)",
      "slug": "iron-golf",
      "brand": "Aurora Sport",
      "category": "sports-accessories",
      "categoryName": "Spor Aksesuarları",
      "unitPrice": 234990,
      "price": {
        "amount": 234990,
        "currency": "TRY",
        "formatted": "₺2.349,90",
        "compareAt": 251407,
        "compareAtFormatted": "₺2.514,07",
        "discountPercentage": 6.53,
        "savings": 16417,
        "savingsFormatted": "₺164,17"
      },
      "currency": "TRY",
      "rating": 4.41,
      "reviewCount": 6,
      "stock": 90,
      "inStock": true,
      "availabilityStatus": "Stokta",
      "badges": [],
      "isNew": false,
      "isBestSeller": false,
      "thumbnail": "https://cdn.dummyjson.com/product-images/sports-accessories/iron-golf/thumbnail.webp",
      "images": [
        "https://cdn.dummyjson.com/product-images/sports-accessories/iron-golf/1.webp"
      ],
      "variantOf": null,
      "variantLabel": null,
      "links": {
        "self": "https://api.aurora-commerce.dev/v1/products/136"
      }
    },
    {
      "id": 137,
      "sku": "AUR-SPO-AUR-0137",
      "title": "Metal Beyzbol Sopası",
      "slug": "metal-baseball-bat",
      "brand": "Aurora Sport",
      "category": "sports-accessories",
      "categoryName": "Spor Aksesuarları",
      "unitPrice": 139990,
      "price": {
        "amount": 139990,
        "currency": "TRY",
        "formatted": "₺1.399,90",
        "compareAt": 173922,
        "compareAtFormatted": "₺1.739,22",
        "discountPercentage": 19.51,
        "savings": 33932,
        "savingsFormatted": "₺339,32"
      },
      "currency": "TRY",
      "rating": 4.66,
      "reviewCount": 3,
      "stock": 16,
      "inStock": true,
      "availabilityStatus": "Stokta",
      "badges": [
        "indirim",
        "çok satan"
      ],
      "isNew": false,
      "isBestSeller": true,
      "thumbnail": "https://cdn.dummyjson.com/product-images/sports-accessories/metal-baseball-bat/thumbnail.webp",
      "images": [
        "https://cdn.dummyjson.com/product-images/sports-accessories/metal-baseball-bat/1.webp"
      ],
      "variantOf": null,
      "variantLabel": null,
      "links": {
        "self": "https://api.aurora-commerce.dev/v1/products/137"
      }
    },
    {
      "id": 138,
      "sku": "AUR-SPO-AUR-0138",
      "title": "Tenis Topu",
      "slug": "tennis-ball",
      "brand": "Aurora Sport",
      "category": "sports-accessories",
      "categoryName": "Spor Aksesuarları",
      "unitPrice": 32990,
      "price": {
        "amount": 32990,
        "currency": "TRY",
        "formatted": "₺329,90",
        "compareAt": 37387,
        "compareAtFormatted": "₺373,87",
        "discountPercentage": 11.76,
        "savings": 4397,
        "savingsFormatted": "₺43,97"
      },
      "currency": "TRY",
      "rating": 4.06,
      "reviewCount": 5,
      "stock": 28,
      "inStock": true,
      "availabilityStatus": "Stokta",
      "badges": [
        "yeni"
      ],
      "isNew": true,
      "isBestSeller": false,
      "thumbnail": "https://cdn.dummyjson.com/product-images/sports-accessories/tennis-ball/thumbnail.webp",
      "images": [
        "https://cdn.dummyjson.com/product-images/sports-accessories/tennis-ball/1.webp"
      ],
      "variantOf": null,
      "variantLabel": null,
      "links": {
        "self": "https://api.aurora-commerce.dev/v1/products/138"
      }
    },
    {
      "id": 139,
      "sku": "AUR-SPO-AUR-0139",
      "title": "Tenis Raketi",
      "slug": "tennis-racket",
      "brand": "Aurora Sport",
      "category": "sports-accessories",
      "categoryName": "Spor Aksesuarları",
      "unitPrice": 234990,
      "price": {
        "amount": 234990,
        "currency": "TRY",
        "formatted": "₺2.349,90",
        "compareAt": 292312,
        "compareAtFormatted": "₺2.923,12",
        "discountPercentage": 19.61,
        "savings": 57322,
        "savingsFormatted": "₺573,22"
      },
      "currency": "TRY",
      "rating": 4.03,
      "reviewCount": 6,
      "stock": 6,
      "inStock": true,
      "availabilityStatus": "Son Birkaç Ürün",
      "badges": [
        "indirim",
        "son ürünler"
      ],
      "isNew": false,
      "isBestSeller": false,
      "thumbnail": "https://cdn.dummyjson.com/product-images/sports-accessories/tennis-racket/thumbnail.webp",
      "images": [
        "https://cdn.dummyjson.com/product-images/sports-accessories/tennis-racket/1.webp"
      ],
      "variantOf": null,
      "variantLabel": null,
      "links": {
        "self": "https://api.aurora-commerce.dev/v1/products/139"
      }
    },
    {
      "id": 140,
      "sku": "AUR-SPO-AUR-0140",
      "title": "Voleybol Topu",
      "slug": "volleyball",
      "brand": "Aurora Sport",
      "category": "sports-accessories",
      "categoryName": "Spor Aksesuarları",
      "unitPrice": 55990,
      "price": {
        "amount": 55990,
        "currency": "TRY",
        "formatted": "₺559,90",
        "compareAt": 63806,
        "compareAtFormatted": "₺638,06",
        "discountPercentage": 12.25,
        "savings": 7816,
        "savingsFormatted": "₺78,16"
      },
      "currency": "TRY",
      "rating": 3.84,
      "reviewCount": 5,
      "stock": 0,
      "inStock": false,
      "availabilityStatus": "Stokta Yok",
      "badges": [
        "indirim",
        "tükendi"
      ],
      "isNew": false,
      "isBestSeller": false,
      "thumbnail": "https://cdn.dummyjson.com/product-images/sports-accessories/volleyball/thumbnail.webp",
      "images": [
        "https://cdn.dummyjson.com/product-images/sports-accessories/volleyball/1.webp"
      ],
      "variantOf": null,
      "variantLabel": null,
      "links": {
        "self": "https://api.aurora-commerce.dev/v1/products/140"
      }
    }
  ],
  "pagination": {
    "page": 7,
    "pageSize": 20,
    "total": 320,
    "totalPages": 16,
    "hasNext": true,
    "hasPrev": true
  },
  "links": {
    "self": "https://api.aurora-commerce.dev/v1/products?page=7&pageSize=20",
    "first": "https://api.aurora-commerce.dev/v1/products?page=1&pageSize=20",
    "last": "https://api.aurora-commerce.dev/v1/products?page=16&pageSize=20",
    "next": "https://api.aurora-commerce.dev/v1/products?page=8&pageSize=20",
    "prev": "https://api.aurora-commerce.dev/v1/products?page=6&pageSize=20"
  },
  "filters": {
    "categories": [
      {
        "slug": "smartphones",
        "name": "Akıllı Telefonlar"
      },
      {
        "slug": "laptops",
        "name": "Dizüstü Bilgisayarlar"
      },
      {
        "slug": "tablets",
        "name": "Tabletler"
      },
      {
        "slug": "electronics",
        "name": "Elektronik"
      },
      {
        "slug": "mobile-accessories",
        "name": "Telefon Aksesuarları"
      },
      {
        "slug": "kitchen-accessories",
        "name": "Mutfak Gereçleri"
      },
      {
        "slug": "home-decoration",
        "name": "Ev Dekorasyonu"
      },
      {
        "slug": "furniture",
        "name": "Mobilya"
      },
      {
        "slug": "mens-watches",
        "name": "Erkek Saat"
      },
      {
        "slug": "sports-accessories",
        "name": "Spor Aksesuarları"
      },
      {
        "slug": "sunglasses",
        "name": "Güneş Gözlüğü"
      },
      {
        "slug": "mens-shoes",
        "name": "Erkek Ayakkabı"
      },
      {
        "slug": "apparel",
        "name": "Giyim"
      },
      {
        "slug": "mens-shirts",
        "name": "Erkek Gömlek"
      },
      {
        "slug": "motorcycle",
        "name": "Motosiklet"
      },
      {
        "slug": "vehicle",
        "name": "Araçlar"
      },
      {
        "slug": "groceries",
        "name": "Market"
      }
    ]
  },
  "meta": {
    "generatedAt": "2026-07-06T09:00:00.000Z",
    "currency": "TRY",
    "apiVersion": "v1"
  }
}